{
  "version": "14.0.0",
  "vulnerabilities": [
    {
      "id": "53c44b6801373af76fdd023a78e70e3f571c52130aa652fa8f9653638a3286f5",
      "category": "dependency_scanning",
      "name": "OS Command Injection",
      "message": "OS Command Injection in execa",
      "description": "Attackers could trick execa into executing arbitrary binaries. This behaviour is caused by the setting `preferLocal=true` which makes execa search for locally installed binaries and executes them.",
      "cve": "package-lock.json:execa:gemnasium:05cfa2e8-2d0c-42c1-8894-638e2f12ff3d",
      "severity": "Critical",
      "solution": "Upgrade to version 2.0.0 or above.",
      "scanner": {
        "id": "gemnasium",
        "name": "Gemnasium"
      },
      "location": {
        "file": "package-lock.json",
        "dependency": {
          "package": {
            "name": "execa"
          },
          "version": "0.7.0"
        }
      },
      "identifiers": [
        {
          "type": "gemnasium",
          "name": "Gemnasium-05cfa2e8-2d0c-42c1-8894-638e2f12ff3d",
          "value": "05cfa2e8-2d0c-42c1-8894-638e2f12ff3d",
          "url": "https://gitlab.com/gitlab-org/security-products/gemnasium-db/-/blob/v1.2.142/npm/execa/GMS-2020-2.yml"
        }
      ],
      "links": [
        {
          "url": "https://github.com/sindresorhus/execa/releases/tag/v2.0.0"
        }
      ]
    },
    {
      "id": "b524f7786659ed9e44afb9eb889ed16c49d1d514f0ea18b1f93e0f5af00bf37e",
      "category": "dependency_scanning",
      "name": "Improper Input Validation",
      "message": "Improper Input Validation in lodash",
      "description": "lodash is vulnerable to Prototype Pollution. The function `defaultsDeep` could be tricked into adding or modifying properties of `Object.prototype` using a constructor payload.",
      "cve": "package-lock.json:lodash:gemnasium:4774cd67-936f-419e-8533-ae5cfe7db9f9",
      "severity": "Critical",
      "solution": "Upgrade to version 4.17.12 or above.",
      "scanner": {
        "id": "gemnasium",
        "name": "Gemnasium"
      },
      "location": {
        "file": "package-lock.json",
        "dependency": {
          "package": {
            "name": "lodash"
          },
          "version": "4.17.10"
        }
      },
      "identifiers": [
        {
          "type": "gemnasium",
          "name": "Gemnasium-4774cd67-936f-419e-8533-ae5cfe7db9f9",
          "value": "4774cd67-936f-419e-8533-ae5cfe7db9f9",
          "url": "https://gitlab.com/gitlab-org/security-products/gemnasium-db/-/blob/v1.2.142/npm/lodash/CVE-2019-10744.yml"
        },
        {
          "type": "cve",
          "name": "CVE-2019-10744",
          "value": "CVE-2019-10744",
          "url": "https://cve.mitre.org/cgi-bin/cvename.cgi?name=CVE-2019-10744"
        }
      ],
      "links": [
        {
          "url": "https://nvd.nist.gov/vuln/detail/CVE-2019-10744"
        }
      ]
    },
    {
      "id": "fa38539b659376e48e2c32a89a49cf5f6a52c84368060b3b622b2b8f95176f8b",
      "category": "dependency_scanning",
      "name": "Uncontrolled Resource Consumption",
      "message": "Uncontrolled Resource Consumption in lodash",
      "description": "A prototype pollution vulnerability was found in lodash where the functions `merge`, `mergeWith`, and `defaultsDeep` can be tricked into adding or modifying properties of `Object.prototype`.",
      "cve": "package-lock.json:lodash:gemnasium:d8822263-8a6f-43ea-bb6b-7a2a0cabdf5c",
      "severity": "Critical",
      "solution": "Upgrade to version 4.17.11 or above.",
      "scanner": {
        "id": "gemnasium",
        "name": "Gemnasium"
      },
      "location": {
        "file": "package-lock.json",
        "dependency": {
          "package": {
            "name": "lodash"
          },
          "version": "4.17.10"
        }
      },
      "identifiers": [
        {
          "type": "gemnasium",
          "name": "Gemnasium-d8822263-8a6f-43ea-bb6b-7a2a0cabdf5c",
          "value": "d8822263-8a6f-43ea-bb6b-7a2a0cabdf5c",
          "url": "https://gitlab.com/gitlab-org/security-products/gemnasium-db/-/blob/v1.2.142/npm/lodash/CVE-2018-16487.yml"
        },
        {
          "type": "cve",
          "name": "CVE-2018-16487",
          "value": "CVE-2018-16487",
          "url": "https://cve.mitre.org/cgi-bin/cvename.cgi?name=CVE-2018-16487"
        }
      ],
      "links": [
        {
          "url": "https://hackerone.com/reports/380873"
        },
        {
          "url": "https://nvd.nist.gov/vuln/detail/CVE-2018-16487"
        }
      ]
    },
    {
      "id": "9629b5c2ee66e431842d53cf3f1cf9755083947bbe37f4ef0e36aa0d8822a271",
      "category": "dependency_scanning",
      "name": "Argument Injection or Modification",
      "message": "Argument Injection or Modification in mixin-deep",
      "description": "mixin-deep is vulnerable to Prototype Pollution. The function mixin-deep could be tricked into adding or modifying properties of `Object.prototype` using a constructor payload.",
      "cve": "package-lock.json:mixin-deep:gemnasium:04af00f2-3b09-4656-9f4b-bcb2f4ef3db1",
      "severity": "Critical",
      "solution": "Upgrade to versions 1.3.2, 2.0.1 or above.",
      "scanner": {
        "id": "gemnasium",
        "name": "Gemnasium"
      },
      "location": {
        "file": "package-lock.json",
        "dependency": {
          "package": {
            "name": "mixin-deep"
          },
          "version": "1.3.1"
        }
      },
      "identifiers": [
        {
          "type": "gemnasium",
          "name": "Gemnasium-04af00f2-3b09-4656-9f4b-bcb2f4ef3db1",
          "value": "04af00f2-3b09-4656-9f4b-bcb2f4ef3db1",
          "url": "https://gitlab.com/gitlab-org/security-products/gemnasium-db/-/blob/v1.2.142/npm/mixin-deep/CVE-2019-10746.yml"
        },
        {
          "type": "cve",
          "name": "CVE-2019-10746",
          "value": "CVE-2019-10746",
          "url": "https://cve.mitre.org/cgi-bin/cvename.cgi?name=CVE-2019-10746"
        }
      ],
      "links": [
        {
          "url": "https://nvd.nist.gov/vuln/detail/CVE-2019-10746"
        }
      ]
    },
    {
      "id": "3a11834e6e67ad8a81c55da14b363b791cdc1f50e9448ab68e14d04c852e0fc1",
      "category": "dependency_scanning",
      "name": "Uncontrolled Resource Consumption",
      "message": "Uncontrolled Resource Consumption in set-value",
      "description": "set-value is vulnerable to Prototype Pollution. The function `mixin-deep` could be tricked into adding or modifying properties of `Object.prototype` using any of the constructor, prototype and `_proto_` payloads.",
      "cve": "package-lock.json:set-value:gemnasium:6f541fe7-9711-457a-8003-a52d8650b66f",
      "severity": "Critical",
      "solution": "Upgrade to versions 2.0.1, 3.0.1 or above.",
      "scanner": {
        "id": "gemnasium",
        "name": "Gemnasium"
      },
      "location": {
        "file": "package-lock.json",
        "dependency": {
          "package": {
            "name": "set-value"
          },
          "version": "2.0.0"
        }
      },
      "identifiers": [
        {
          "type": "gemnasium",
          "name": "Gemnasium-6f541fe7-9711-457a-8003-a52d8650b66f",
          "value": "6f541fe7-9711-457a-8003-a52d8650b66f",
          "url": "https://gitlab.com/gitlab-org/security-products/gemnasium-db/-/blob/v1.2.142/npm/set-value/CVE-2019-10747.yml"
        },
        {
          "type": "cve",
          "name": "CVE-2019-10747",
          "value": "CVE-2019-10747",
          "url": "https://cve.mitre.org/cgi-bin/cvename.cgi?name=CVE-2019-10747"
        }
      ],
      "links": [
        {
          "url": "https://nvd.nist.gov/vuln/detail/CVE-2019-10747"
        }
      ]
    },
    {
      "id": "b9f2b854f95ea4f039801ca6b92956b53f897359ddc866916a3bc64ecfe49f74",
      "category": "dependency_scanning",
      "name": "Uncontrolled Resource Consumption",
      "message": "Uncontrolled Resource Consumption in set-value",
      "description": "set-value is vulnerable to Prototype Pollution. The function `mixin-deep` could be tricked into adding or modifying properties of `Object.prototype` using any of the constructor, prototype and `_proto_` payloads.",
      "cve": "package-lock.json:set-value:gemnasium:6f541fe7-9711-457a-8003-a52d8650b66f",
      "severity": "Critical",
      "solution": "Upgrade to versions 2.0.1, 3.0.1 or above.",
      "scanner": {
        "id": "gemnasium",
        "name": "Gemnasium"
      },
      "location": {
        "file": "package-lock.json",
        "dependency": {
          "package": {
            "name": "set-value"
          },
          "version": "0.4.3"
        }
      },
      "identifiers": [
        {
          "type": "gemnasium",
          "name": "Gemnasium-6f541fe7-9711-457a-8003-a52d8650b66f",
          "value": "6f541fe7-9711-457a-8003-a52d8650b66f",
          "url": "https://gitlab.com/gitlab-org/security-products/gemnasium-db/-/blob/v1.2.142/npm/set-value/CVE-2019-10747.yml"
        },
        {
          "type": "cve",
          "name": "CVE-2019-10747",
          "value": "CVE-2019-10747",
          "url": "https://cve.mitre.org/cgi-bin/cvename.cgi?name=CVE-2019-10747"
        }
      ],
      "links": [
        {
          "url": "https://nvd.nist.gov/vuln/detail/CVE-2019-10747"
        }
      ]
    },
    {
      "id": "58121ad6b365941b70dd1ed4751b3f617d46ea379c4b376a6d147e59f1ee28a1",
      "category": "dependency_scanning",
      "name": "Regular Expression Denial of Service",
      "message": "Regular Expression Denial of Service in acorn",
      "description": "A regex in the form of `/[x-\\ud800]/u` causes the parser to enter an infinite loop. The string is not valid UTF16 which usually results in it being sanitized before reaching the parser.",
      "cve": "package-lock.json:acorn:gemnasium:cd6cfe67-4650-49c6-a10a-ee4195a573fa",
      "severity": "High",
      "solution": "Upgrade to versions 5.7.4, 6.4.1, 7.1.1 or later.",
      "scanner": {
        "id": "gemnasium",
        "name": "Gemnasium"
      },
      "location": {
        "file": "package-lock.json",
        "dependency": {
          "package": {
            "name": "acorn"
          },
          "version": "6.4.0"
        }
      },
      "identifiers": [
        {
          "type": "gemnasium",
          "name": "Gemnasium-cd6cfe67-4650-49c6-a10a-ee4195a573fa",
          "value": "cd6cfe67-4650-49c6-a10a-ee4195a573fa",
          "url": "https://gitlab.com/gitlab-org/security-products/gemnasium-db/-/blob/v1.2.142/npm/acorn/GMS-2020-1.yml"
        }
      ],
      "links": [
        {
          "url": "https://github.com/acornjs/acorn/commit/793c0e569ed1158672e3a40aeed1d8518832b802"
        },
        {
          "url": "https://snyk.io/vuln/SNYK-JS-ACORN-559469"
        },
        {
          "url": "https://www.npmjs.com/advisories/1488"
        }
      ]
    },
    {
      "id": "4be55b1aa902fa97d757e9ebb1dae29a52eb88b1f7cc3548c3c50cc720df9c34",
      "category": "dependency_scanning",
      "name": "Regular Expression Denial of Service",
      "message": "Regular Expression Denial of Service in acorn",
      "description": "A regex in the form of `/[x-\\ud800]/u` causes the parser to enter an infinite loop. The string is not valid UTF16 which usually results in it being sanitized before reaching the parser.",
      "cve": "package-lock.json:acorn:gemnasium:cd6cfe67-4650-49c6-a10a-ee4195a573fa",
      "severity": "High",
      "solution": "Upgrade to versions 5.7.4, 6.4.1, 7.1.1 or later.",
      "scanner": {
        "id": "gemnasium",
        "name": "Gemnasium"
      },
      "location": {
        "file": "package-lock.json",
        "dependency": {
          "package": {
            "name": "acorn"
          },
          "version": "5.7.3"
        }
      },
      "identifiers": [
        {
          "type": "gemnasium",
          "name": "Gemnasium-cd6cfe67-4650-49c6-a10a-ee4195a573fa",
          "value": "cd6cfe67-4650-49c6-a10a-ee4195a573fa",
          "url": "https://gitlab.com/gitlab-org/security-products/gemnasium-db/-/blob/v1.2.142/npm/acorn/GMS-2020-1.yml"
        }
      ],
      "links": [
        {
          "url": "https://github.com/acornjs/acorn/commit/793c0e569ed1158672e3a40aeed1d8518832b802"
        },
        {
          "url": "https://snyk.io/vuln/SNYK-JS-ACORN-559469"
        },
        {
          "url": "https://www.npmjs.com/advisories/1488"
        }
      ]
    },
    {
      "id": "0d0b1725b7a7fa736d6b8c2966b19f93baa2bbff14106947d23d243fea5cbf01",
      "category": "dependency_scanning",
      "name": "Type checking vulnerability",
      "message": "Type checking vulnerability in kind-of",
      "description": "`ctorName` allows external user input to overwrite certain internal attributes via a conflicting name.",
      "cve": "package-lock.json:kind-of:gemnasium:c69c3883-e67c-4be5-a4dd-ce1d82173049",
      "severity": "High",
      "solution": "Upgrade to version 6.0.3 or above.",
      "scanner": {
        "id": "gemnasium",
        "name": "Gemnasium"
      },
      "location": {
        "file": "package-lock.json",
        "dependency": {
          "package": {
            "name": "kind-of"
          },
          "version": "4.0.0"
        }
      },
      "identifiers": [
        {
          "type": "gemnasium",
          "name": "Gemnasium-c69c3883-e67c-4be5-a4dd-ce1d82173049",
          "value": "c69c3883-e67c-4be5-a4dd-ce1d82173049",
          "url": "https://gitlab.com/gitlab-org/security-products/gemnasium-db/-/blob/v1.2.142/npm/kind-of/CVE-2019-20149.yml"
        },
        {
          "type": "cve",
          "name": "CVE-2019-20149",
          "value": "CVE-2019-20149",
          "url": "https://cve.mitre.org/cgi-bin/cvename.cgi?name=CVE-2019-20149"
        }
      ],
      "links": [
        {
          "url": "https://github.com/jonschlinkert/kind-of/issues/30"
        },
        {
          "url": "https://github.com/jonschlinkert/kind-of/pull/31"
        },
        {
          "url": "https://nvd.nist.gov/vuln/detail/CVE-2019-20149"
        }
      ]
    },
    {
      "id": "f4a96179781720d99f9e4350127948cdfe654eda6a647a075df51993cdea255b",
      "category": "dependency_scanning",
      "name": "Type checking vulnerability",
      "message": "Type checking vulnerability in kind-of",
      "description": "`ctorName` allows external user input to overwrite certain internal attributes via a conflicting name.",
      "cve": "package-lock.json:kind-of:gemnasium:c69c3883-e67c-4be5-a4dd-ce1d82173049",
      "severity": "High",
      "solution": "Upgrade to version 6.0.3 or above.",
      "scanner": {
        "id": "gemnasium",
        "name": "Gemnasium"
      },
      "location": {
        "file": "package-lock.json",
        "dependency": {
          "package": {
            "name": "kind-of"
          },
          "version": "3.2.2"
        }
      },
      "identifiers": [
        {
          "type": "gemnasium",
          "name": "Gemnasium-c69c3883-e67c-4be5-a4dd-ce1d82173049",
          "value": "c69c3883-e67c-4be5-a4dd-ce1d82173049",
          "url": "https://gitlab.com/gitlab-org/security-products/gemnasium-db/-/blob/v1.2.142/npm/kind-of/CVE-2019-20149.yml"
        },
        {
          "type": "cve",
          "name": "CVE-2019-20149",
          "value": "CVE-2019-20149",
          "url": "https://cve.mitre.org/cgi-bin/cvename.cgi?name=CVE-2019-20149"
        }
      ],
      "links": [
        {
          "url": "https://github.com/jonschlinkert/kind-of/issues/30"
        },
        {
          "url": "https://github.com/jonschlinkert/kind-of/pull/31"
        },
        {
          "url": "https://nvd.nist.gov/vuln/detail/CVE-2019-20149"
        }
      ]
    },
    {
      "id": "5303e55bfb1bdfde14ceb6a1bb33ce6a4031aaab7ae3bf41ef98c8c9adb796c3",
      "category": "dependency_scanning",
      "name": "Type checking vulnerability",
      "message": "Type checking vulnerability in kind-of",
      "description": "`ctorName` allows external user input to overwrite certain internal attributes via a conflicting name.",
      "cve": "package-lock.json:kind-of:gemnasium:c69c3883-e67c-4be5-a4dd-ce1d82173049",
      "severity": "High",
      "solution": "Upgrade to version 6.0.3 or above.",
      "scanner": {
        "id": "gemnasium",
        "name": "Gemnasium"
      },
      "location": {
        "file": "package-lock.json",
        "dependency": {
          "package": {
            "name": "kind-of"
          },
          "version": "5.1.0"
        }
      },
      "identifiers": [
        {
          "type": "gemnasium",
          "name": "Gemnasium-c69c3883-e67c-4be5-a4dd-ce1d82173049",
          "value": "c69c3883-e67c-4be5-a4dd-ce1d82173049",
          "url": "https://gitlab.com/gitlab-org/security-products/gemnasium-db/-/blob/v1.2.142/npm/kind-of/CVE-2019-20149.yml"
        },
        {
          "type": "cve",
          "name": "CVE-2019-20149",
          "value": "CVE-2019-20149",
          "url": "https://cve.mitre.org/cgi-bin/cvename.cgi?name=CVE-2019-20149"
        }
      ],
      "links": [
        {
          "url": "https://github.com/jonschlinkert/kind-of/issues/30"
        },
        {
          "url": "https://github.com/jonschlinkert/kind-of/pull/31"
        },
        {
          "url": "https://nvd.nist.gov/vuln/detail/CVE-2019-20149"
        }
      ]
    },
    {
      "id": "354a40a1ef9bb6467b3b87b35a15d0b1c03e4a4a062a9f5b71855d05c9c46249",
      "category": "dependency_scanning",
      "name": "Type checking vulnerability",
      "message": "Type checking vulnerability in kind-of",
      "description": "`ctorName` allows external user input to overwrite certain internal attributes via a conflicting name.",
      "cve": "package-lock.json:kind-of:gemnasium:c69c3883-e67c-4be5-a4dd-ce1d82173049",
      "severity": "High",
      "solution": "Upgrade to version 6.0.3 or above.",
      "scanner": {
        "id": "gemnasium",
        "name": "Gemnasium"
      },
      "location": {
        "file": "package-lock.json",
        "dependency": {
          "package": {
            "name": "kind-of"
          },
          "version": "6.0.2"
        }
      },
      "identifiers": [
        {
          "type": "gemnasium",
          "name": "Gemnasium-c69c3883-e67c-4be5-a4dd-ce1d82173049",
          "value": "c69c3883-e67c-4be5-a4dd-ce1d82173049",
          "url": "https://gitlab.com/gitlab-org/security-products/gemnasium-db/-/blob/v1.2.142/npm/kind-of/CVE-2019-20149.yml"
        },
        {
          "type": "cve",
          "name": "CVE-2019-20149",
          "value": "CVE-2019-20149",
          "url": "https://cve.mitre.org/cgi-bin/cvename.cgi?name=CVE-2019-20149"
        }
      ],
      "links": [
        {
          "url": "https://github.com/jonschlinkert/kind-of/issues/30"
        },
        {
          "url": "https://github.com/jonschlinkert/kind-of/pull/31"
        },
        {
          "url": "https://nvd.nist.gov/vuln/detail/CVE-2019-20149"
        }
      ]
    },
    {
      "id": "84fca972be1a7ff60892af61c9b0ba4f4dae680d7946cdeeee7b4090914de413",
      "category": "dependency_scanning",
      "name": "Object Prototype Pollution",
      "message": "Object Prototype Pollution in lodash",
      "description": "Prototype pollution attack when using `_.zipObjectDeep` in lodash.",
      "cve": "package-lock.json:lodash:gemnasium:1f7fa42b-6b17-46b7-88a5-8995b43d298f",
      "severity": "High",
      "solution": "Upgrade to version 4.17.20 or above.",
      "scanner": {
        "id": "gemnasium",
        "name": "Gemnasium"
      },
      "location": {
        "file": "package-lock.json",
        "dependency": {
          "package": {
            "name": "lodash"
          },
          "version": "4.17.10"
        }
      },
      "identifiers": [
        {
          "type": "gemnasium",
          "name": "Gemnasium-1f7fa42b-6b17-46b7-88a5-8995b43d298f",
          "value": "1f7fa42b-6b17-46b7-88a5-8995b43d298f",
          "url": "https://gitlab.com/gitlab-org/security-products/gemnasium-db/-/blob/v1.2.142/npm/lodash/CVE-2020-8203.yml"
        },
        {
          "type": "cve",
          "name": "CVE-2020-8203",
          "value": "CVE-2020-8203",
          "url": "https://cve.mitre.org/cgi-bin/cvename.cgi?name=CVE-2020-8203"
        }
      ],
      "links": [
        {
          "url": "https://github.com/lodash/lodash/issues/4874"
        },
        {
          "url": "https://nvd.nist.gov/vuln/detail/CVE-2020-8203"
        }
      ]
    },
    {
      "id": "776ce20a19f55e831f4216412f2de9891856351740daad4ff8d42037ae5e7532",
      "category": "dependency_scanning",
      "name": "Object Prototype Pollution",
      "message": "Object Prototype Pollution in lodash",
      "description": "Prototype pollution attack when using `_.zipObjectDeep` in lodash.",
      "cve": "package-lock.json:lodash:gemnasium:1f7fa42b-6b17-46b7-88a5-8995b43d298f",
      "severity": "High",
      "solution": "Upgrade to version 4.17.20 or above.",
      "scanner": {
        "id": "gemnasium",
        "name": "Gemnasium"
      },
      "location": {
        "file": "package-lock.json",
        "dependency": {
          "package": {
            "name": "lodash"
          },
          "version": "4.17.15"
        }
      },
      "identifiers": [
        {
          "type": "gemnasium",
          "name": "Gemnasium-1f7fa42b-6b17-46b7-88a5-8995b43d298f",
          "value": "1f7fa42b-6b17-46b7-88a5-8995b43d298f",
          "url": "https://gitlab.com/gitlab-org/security-products/gemnasium-db/-/blob/v1.2.142/npm/lodash/CVE-2020-8203.yml"
        },
        {
          "type": "cve",
          "name": "CVE-2020-8203",
          "value": "CVE-2020-8203",
          "url": "https://cve.mitre.org/cgi-bin/cvename.cgi?name=CVE-2020-8203"
        }
      ],
      "links": [
        {
          "url": "https://github.com/lodash/lodash/issues/4874"
        },
        {
          "url": "https://nvd.nist.gov/vuln/detail/CVE-2020-8203"
        }
      ]
    },
    {
      "id": "cfe72e32e7b7b798102d29389b358c3b814bbdda4527dce44ed329a1809c43ae",
      "category": "dependency_scanning",
      "name": "Uncontrolled Resource Consumption",
      "message": "Uncontrolled Resource Consumption in lodash",
      "description": "lodash is affected by Uncontrolled Resource Consumption which can lead to a denial of service.",
      "cve": "package-lock.json:lodash:gemnasium:109f3b4c-bdb3-48be-b2f9-e0348fba64bd",
      "severity": "Medium",
      "solution": "Upgrade to version 4.17.11 or above.",
      "scanner": {
        "id": "gemnasium",
        "name": "Gemnasium"
      },
      "location": {
        "file": "package-lock.json",
        "dependency": {
          "package": {
            "name": "lodash"
          },
          "version": "4.17.10"
        }
      },
      "identifiers": [
        {
          "type": "gemnasium",
          "name": "Gemnasium-109f3b4c-bdb3-48be-b2f9-e0348fba64bd",
          "value": "109f3b4c-bdb3-48be-b2f9-e0348fba64bd",
          "url": "https://gitlab.com/gitlab-org/security-products/gemnasium-db/-/blob/v1.2.142/npm/lodash/CVE-2019-1010266.yml"
        },
        {
          "type": "cve",
          "name": "CVE-2019-1010266",
          "value": "CVE-2019-1010266",
          "url": "https://cve.mitre.org/cgi-bin/cvename.cgi?name=CVE-2019-1010266"
        }
      ],
      "links": [
        {
          "url": "https://github.com/lodash/lodash/issues/3359"
        },
        {
          "url": "https://nvd.nist.gov/vuln/detail/CVE-2019-1010266"
        }
      ]
    },
    {
      "id": "2f347911ae04ec3621c589e09233b592b05c2c3802a55ff492d200579c1ff0b9",
      "category": "dependency_scanning",
      "name": "Improper Input Validation",
      "message": "Improper Input Validation in minimist",
      "description": "minimist could be tricked into adding or modifying properties of `Object.prototype` using a `constructor` or `__proto__` payload.",
      "cve": "package-lock.json:minimist:gemnasium:53e8766c-27eb-4278-8c4f-3dcef53a68bf",
      "severity": "Medium",
      "solution": "Upgrade to version 1.2.2 or above.",
      "scanner": {
        "id": "gemnasium",
        "name": "Gemnasium"
      },
      "location": {
        "file": "package-lock.json",
        "dependency": {
          "package": {
            "name": "minimist"
          },
          "version": "0.0.8"
        }
      },
      "identifiers": [
        {
          "type": "gemnasium",
          "name": "Gemnasium-53e8766c-27eb-4278-8c4f-3dcef53a68bf",
          "value": "53e8766c-27eb-4278-8c4f-3dcef53a68bf",
          "url": "https://gitlab.com/gitlab-org/security-products/gemnasium-db/-/blob/v1.2.142/npm/minimist/CVE-2020-7598.yml"
        },
        {
          "type": "cve",
          "name": "CVE-2020-7598",
          "value": "CVE-2020-7598",
          "url": "https://cve.mitre.org/cgi-bin/cvename.cgi?name=CVE-2020-7598"
        }
      ],
      "links": [
        {
          "url": "https://nvd.nist.gov/vuln/detail/CVE-2020-7598"
        }
      ]
    },
    {
      "id": "65a09b11d614bb588a452cc9e19e66eb6cae2a7440fba2dc233008e8b31e2272",
      "category": "dependency_scanning",
      "name": "Improper Input Validation",
      "message": "Improper Input Validation in yargs-parser",
      "description": "yargs-parser could be tricked into adding or modifying properties of `Object.prototype` using a `__proto__` payload.",
      "cve": "package-lock.json:yargs-parser:gemnasium:a9e73366-2694-40b0-bcc1-795368307084",
      "severity": "Medium",
      "solution": "Upgrade to versions 13.1.2, 15.0.1, 18.1.1 or above.",
      "scanner": {
        "id": "gemnasium",
        "name": "Gemnasium"
      },
      "location": {
        "file": "package-lock.json",
        "dependency": {
          "package": {
            "name": "yargs-parser"
          },
          "version": "8.1.0"
        }
      },
      "identifiers": [
        {
          "type": "gemnasium",
          "name": "Gemnasium-a9e73366-2694-40b0-bcc1-795368307084",
          "value": "a9e73366-2694-40b0-bcc1-795368307084",
          "url": "https://gitlab.com/gitlab-org/security-products/gemnasium-db/-/blob/v1.2.142/npm/yargs-parser/CVE-2020-7608.yml"
        },
        {
          "type": "cve",
          "name": "CVE-2020-7608",
          "value": "CVE-2020-7608",
          "url": "https://cve.mitre.org/cgi-bin/cvename.cgi?name=CVE-2020-7608"
        }
      ],
      "links": [
        {
          "url": "https://nvd.nist.gov/vuln/detail/CVE-2020-7608"
        }
      ]
    },
    {
      "id": "103607ad8af0d283b086b8256eb95443436147c6d451cf12e1e27b9d2262b76f",
      "category": "dependency_scanning",
      "name": "Improper Input Validation",
      "message": "Improper Input Validation in yargs-parser",
      "description": "yargs-parser could be tricked into adding or modifying properties of `Object.prototype` using a `__proto__` payload.",
      "cve": "package-lock.json:yargs-parser:gemnasium:a9e73366-2694-40b0-bcc1-795368307084",
      "severity": "Medium",
      "solution": "Upgrade to versions 13.1.2, 15.0.1, 18.1.1 or above.",
      "scanner": {
        "id": "gemnasium",
        "name": "Gemnasium"
      },
      "location": {
        "file": "package-lock.json",
        "dependency": {
          "package": {
            "name": "yargs-parser"
          },
          "version": "9.0.2"
        }
      },
      "identifiers": [
        {
          "type": "gemnasium",
          "name": "Gemnasium-a9e73366-2694-40b0-bcc1-795368307084",
          "value": "a9e73366-2694-40b0-bcc1-795368307084",
          "url": "https://gitlab.com/gitlab-org/security-products/gemnasium-db/-/blob/v1.2.142/npm/yargs-parser/CVE-2020-7608.yml"
        },
        {
          "type": "cve",
          "name": "CVE-2020-7608",
          "value": "CVE-2020-7608",
          "url": "https://cve.mitre.org/cgi-bin/cvename.cgi?name=CVE-2020-7608"
        }
      ],
      "links": [
        {
          "url": "https://nvd.nist.gov/vuln/detail/CVE-2020-7608"
        }
      ]
    }
  ],
  "remediations": [],
  "dependency_files": [
    {
      "path": "package-lock.json",
      "package_manager": "npm",
      "dependencies": [
        {
          "package": {
            "name": "abab"
          },
          "version": "2.0.3"
        },
        {
          "package": {
            "name": "acorn"
          },
          "version": "5.7.3"
        },
        {
          "package": {
            "name": "acorn"
          },
          "version": "6.4.0"
        },
        {
          "package": {
            "name": "acorn-globals"
          },
          "version": "4.3.4"
        },
        {
          "package": {
            "name": "acorn-walk"
          },
          "version": "6.2.0"
        },
        {
          "package": {
            "name": "ajv"
          },
          "version": "6.10.2"
        },
        {
          "package": {
            "name": "align-text"
          },
          "version": "0.1.4"
        },
        {
          "package": {
            "name": "amdefine"
          },
          "version": "1.0.1"
        },
        {
          "package": {
            "name": "ansi-regex"
          },
          "version": "2.1.1"
        },
        {
          "package": {
            "name": "ansi-regex"
          },
          "version": "3.0.0"
        },
        {
          "package": {
            "name": "ansi-styles"
          },
          "version": "2.2.1"
        },
        {
          "package": {
            "name": "append-transform"
          },
          "version": "0.4.0"
        },
        {
          "package": {
            "name": "archy"
          },
          "version": "1.0.0"
        },
        {
          "package": {
            "name": "arr-diff"
          },
          "version": "4.0.0"
        },
        {
          "package": {
            "name": "arr-flatten"
          },
          "version": "1.1.0"
        },
        {
          "package": {
            "name": "arr-union"
          },
          "version": "3.1.0"
        },
        {
          "package": {
            "name": "array-equal"
          },
          "version": "1.0.0"
        },
        {
          "package": {
            "name": "array-unique"
          },
          "version": "0.3.2"
        },
        {
          "package": {
            "name": "arrify"
          },
          "version": "1.0.1"
        },
        {
          "package": {
            "name": "asn1"
          },
          "version": "0.2.4"
        },
        {
          "package": {
            "name": "assert-plus"
          },
          "version": "1.0.0"
        },
        {
          "package": {
            "name": "assign-symbols"
          },
          "version": "1.0.0"
        },
        {
          "package": {
            "name": "async"
          },
          "version": "1.5.2"
        },
        {
          "package": {
            "name": "async-limiter"
          },
          "version": "1.0.1"
        },
        {
          "package": {
            "name": "asynckit"
          },
          "version": "0.4.0"
        },
        {
          "package": {
            "name": "atob"
          },
          "version": "2.1.1"
        },
        {
          "package": {
            "name": "aws-sign2"
          },
          "version": "0.7.0"
        },
        {
          "package": {
            "name": "aws4"
          },
          "version": "1.9.0"
        },
        {
          "package": {
            "name": "babel-code-frame"
          },
          "version": "6.26.0"
        },
        {
          "package": {
            "name": "babel-generator"
          },
          "version": "6.26.1"
        },
        {
          "package": {
            "name": "babel-messages"
          },
          "version": "6.23.0"
        },
        {
          "package": {
            "name": "babel-runtime"
          },
          "version": "6.26.0"
        },
        {
          "package": {
            "name": "babel-template"
          },
          "version": "6.26.0"
        },
        {
          "package": {
            "name": "babel-traverse"
          },
          "version": "6.26.0"
        },
        {
          "package": {
            "name": "babel-types"
          },
          "version": "6.26.0"
        },
        {
          "package": {
            "name": "babylon"
          },
          "version": "6.18.0"
        },
        {
          "package": {
            "name": "balanced-match"
          },
          "version": "1.0.0"
        },
        {
          "package": {
            "name": "base"
          },
          "version": "0.11.2"
        },
        {
          "package": {
            "name": "bcrypt-pbkdf"
          },
          "version": "1.0.2"
        },
        {
          "package": {
            "name": "brace-expansion"
          },
          "version": "1.1.11"
        },
        {
          "package": {
            "name": "braces"
          },
          "version": "2.3.2"
        },
        {
          "package": {
            "name": "browser-process-hrtime"
          },
          "version": "0.1.3"
        },
        {
          "package": {
            "name": "builtin-modules"
          },
          "version": "1.1.1"
        },
        {
          "package": {
            "name": "cache-base"
          },
          "version": "1.0.1"
        },
        {
          "package": {
            "name": "caching-transform"
          },
          "version": "1.0.1"
        },
        {
          "package": {
            "name": "camelcase"
          },
          "version": "1.2.1"
        },
        {
          "package": {
            "name": "camelcase"
          },
          "version": "4.1.0"
        },
        {
          "package": {
            "name": "caseless"
          },
          "version": "0.12.0"
        },
        {
          "package": {
            "name": "center-align"
          },
          "version": "0.1.3"
        },
        {
          "package": {
            "name": "chalk"
          },
          "version": "1.1.3"
        },
        {
          "package": {
            "name": "class-utils"
          },
          "version": "0.3.6"
        },
        {
          "package": {
            "name": "cliui"
          },
          "version": "2.1.0"
        },
        {
          "package": {
            "name": "cliui"
          },
          "version": "4.1.0"
        },
        {
          "package": {
            "name": "code-point-at"
          },
          "version": "1.1.0"
        },
        {
          "package": {
            "name": "collection-visit"
          },
          "version": "1.0.0"
        },
        {
          "package": {
            "name": "combined-stream"
          },
          "version": "1.0.8"
        },
        {
          "package": {
            "name": "commondir"
          },
          "version": "1.0.1"
        },
        {
          "package": {
            "name": "component-emitter"
          },
          "version": "1.2.1"
        },
        {
          "package": {
            "name": "concat-map"
          },
          "version": "0.0.1"
        },
        {
          "package": {
            "name": "convert-source-map"
          },
          "version": "1.5.1"
        },
        {
          "package": {
            "name": "copy-descriptor"
          },
          "version": "0.1.1"
        },
        {
          "package": {
            "name": "core-js"
          },
          "version": "2.5.6"
        },
        {
          "package": {
            "name": "core-util-is"
          },
          "version": "1.0.2"
        },
        {
          "package": {
            "name": "cross-spawn"
          },
          "version": "4.0.2"
        },
        {
          "package": {
            "name": "cross-spawn"
          },
          "version": "5.1.0"
        },
        {
          "package": {
            "name": "cssom"
          },
          "version": "0.3.8"
        },
        {
          "package": {
            "name": "cssstyle"
          },
          "version": "1.4.0"
        },
        {
          "package": {
            "name": "dashdash"
          },
          "version": "1.14.1"
        },
        {
          "package": {
            "name": "data-urls"
          },
          "version": "1.1.0"
        },
        {
          "package": {
            "name": "debug"
          },
          "version": "2.6.9"
        },
        {
          "package": {
            "name": "debug"
          },
          "version": "3.1.0"
        },
        {
          "package": {
            "name": "debug-log"
          },
          "version": "1.0.1"
        },
        {
          "package": {
            "name": "decamelize"
          },
          "version": "1.2.0"
        },
        {
          "package": {
            "name": "decode-uri-component"
          },
          "version": "0.2.0"
        },
        {
          "package": {
            "name": "deep-is"
          },
          "version": "0.1.3"
        },
        {
          "package": {
            "name": "default-require-extensions"
          },
          "version": "1.0.0"
        },
        {
          "package": {
            "name": "define-property"
          },
          "version": "0.2.5"
        },
        {
          "package": {
            "name": "define-property"
          },
          "version": "1.0.0"
        },
        {
          "package": {
            "name": "define-property"
          },
          "version": "2.0.2"
        },
        {
          "package": {
            "name": "delayed-stream"
          },
          "version": "1.0.0"
        },
        {
          "package": {
            "name": "detect-indent"
          },
          "version": "4.0.0"
        },
        {
          "package": {
            "name": "domexception"
          },
          "version": "1.0.1"
        },
        {
          "package": {
            "name": "ecc-jsbn"
          },
          "version": "0.1.2"
        },
        {
          "package": {
            "name": "error-ex"
          },
          "version": "1.3.1"
        },
        {
          "package": {
            "name": "escape-string-regexp"
          },
          "version": "1.0.5"
        },
        {
          "package": {
            "name": "escodegen"
          },
          "version": "1.12.0"
        },
        {
          "package": {
            "name": "esprima"
          },
          "version": "3.1.3"
        },
        {
          "package": {
            "name": "estraverse"
          },
          "version": "4.3.0"
        },
        {
          "package": {
            "name": "esutils"
          },
          "version": "2.0.2"
        },
        {
          "package": {
            "name": "esutils"
          },
          "version": "2.0.3"
        },
        {
          "package": {
            "name": "execa"
          },
          "version": "0.7.0"
        },
        {
          "package": {
            "name": "expand-brackets"
          },
          "version": "2.1.4"
        },
        {
          "package": {
            "name": "extend"
          },
          "version": "3.0.2"
        },
        {
          "package": {
            "name": "extend-shallow"
          },
          "version": "2.0.1"
        },
        {
          "package": {
            "name": "extend-shallow"
          },
          "version": "3.0.2"
        },
        {
          "package": {
            "name": "extglob"
          },
          "version": "2.0.4"
        },
        {
          "package": {
            "name": "extsprintf"
          },
          "version": "1.3.0"
        },
        {
          "package": {
            "name": "fast-deep-equal"
          },
          "version": "2.0.1"
        },
        {
          "package": {
            "name": "fast-json-stable-stringify"
          },
          "version": "2.0.0"
        },
        {
          "package": {
            "name": "fast-levenshtein"
          },
          "version": "2.0.6"
        },
        {
          "package": {
            "name": "fill-range"
          },
          "version": "4.0.0"
        },
        {
          "package": {
            "name": "find-cache-dir"
          },
          "version": "0.1.1"
        },
        {
          "package": {
            "name": "find-up"
          },
          "version": "1.1.2"
        },
        {
          "package": {
            "name": "find-up"
          },
          "version": "2.1.0"
        },
        {
          "package": {
            "name": "for-in"
          },
          "version": "1.0.2"
        },
        {
          "package": {
            "name": "foreground-child"
          },
          "version": "1.5.6"
        },
        {
          "package": {
            "name": "forever-agent"
          },
          "version": "0.6.1"
        },
        {
          "package": {
            "name": "form-data"
          },
          "version": "2.3.3"
        },
        {
          "package": {
            "name": "fragment-cache"
          },
          "version": "0.2.1"
        },
        {
          "package": {
            "name": "fs.realpath"
          },
          "version": "1.0.0"
        },
        {
          "package": {
            "name": "get-caller-file"
          },
          "version": "1.0.2"
        },
        {
          "package": {
            "name": "get-stream"
          },
          "version": "3.0.0"
        },
        {
          "package": {
            "name": "get-value"
          },
          "version": "2.0.6"
        },
        {
          "package": {
            "name": "getpass"
          },
          "version": "0.1.7"
        },
        {
          "package": {
            "name": "glob"
          },
          "version": "7.1.2"
        },
        {
          "package": {
            "name": "globals"
          },
          "version": "9.18.0"
        },
        {
          "package": {
            "name": "graceful-fs"
          },
          "version": "4.1.11"
        },
        {
          "package": {
            "name": "handlebars"
          },
          "version": "4.0.11"
        },
        {
          "package": {
            "name": "har-schema"
          },
          "version": "2.0.0"
        },
        {
          "package": {
            "name": "har-validator"
          },
          "version": "5.1.3"
        },
        {
          "package": {
            "name": "has-ansi"
          },
          "version": "2.0.0"
        },
        {
          "package": {
            "name": "has-flag"
          },
          "version": "1.0.0"
        },
        {
          "package": {
            "name": "has-value"
          },
          "version": "0.3.1"
        },
        {
          "package": {
            "name": "has-value"
          },
          "version": "1.0.0"
        },
        {
          "package": {
            "name": "has-values"
          },
          "version": "0.1.4"
        },
        {
          "package": {
            "name": "has-values"
          },
          "version": "1.0.0"
        },
        {
          "package": {
            "name": "highlight.js"
          },
          "version": "9.16.2"
        },
        {
          "package": {
            "name": "hosted-git-info"
          },
          "version": "2.6.0"
        },
        {
          "package": {
            "name": "html-encoding-sniffer"
          },
          "version": "1.0.2"
        },
        {
          "package": {
            "name": "http-signature"
          },
          "version": "1.2.0"
        },
        {
          "package": {
            "name": "iconv-lite"
          },
          "version": "0.4.24"
        },
        {
          "package": {
            "name": "imurmurhash"
          },
          "version": "0.1.4"
        },
        {
          "package": {
            "name": "inflight"
          },
          "version": "1.0.6"
        },
        {
          "package": {
            "name": "inherits"
          },
          "version": "2.0.3"
        },
        {
          "package": {
            "name": "invariant"
          },
          "version": "2.2.4"
        },
        {
          "package": {
            "name": "invert-kv"
          },
          "version": "1.0.0"
        },
        {
          "package": {
            "name": "is-accessor-descriptor"
          },
          "version": "0.1.6"
        },
        {
          "package": {
            "name": "is-accessor-descriptor"
          },
          "version": "1.0.0"
        },
        {
          "package": {
            "name": "is-arrayish"
          },
          "version": "0.2.1"
        },
        {
          "package": {
            "name": "is-buffer"
          },
          "version": "1.1.6"
        },
        {
          "package": {
            "name": "is-builtin-module"
          },
          "version": "1.0.0"
        },
        {
          "package": {
            "name": "is-data-descriptor"
          },
          "version": "0.1.4"
        },
        {
          "package": {
            "name": "is-data-descriptor"
          },
          "version": "1.0.0"
        },
        {
          "package": {
            "name": "is-descriptor"
          },
          "version": "0.1.6"
        },
        {
          "package": {
            "name": "is-descriptor"
          },
          "version": "1.0.2"
        },
        {
          "package": {
            "name": "is-extendable"
          },
          "version": "0.1.1"
        },
        {
          "package": {
            "name": "is-extendable"
          },
          "version": "1.0.1"
        },
        {
          "package": {
            "name": "is-finite"
          },
          "version": "1.0.2"
        },
        {
          "package": {
            "name": "is-fullwidth-code-point"
          },
          "version": "1.0.0"
        },
        {
          "package": {
            "name": "is-fullwidth-code-point"
          },
          "version": "2.0.0"
        },
        {
          "package": {
            "name": "is-number"
          },
          "version": "3.0.0"
        },
        {
          "package": {
            "name": "is-number"
          },
          "version": "4.0.0"
        },
        {
          "package": {
            "name": "is-odd"
          },
          "version": "2.0.0"
        },
        {
          "package": {
            "name": "is-plain-object"
          },
          "version": "2.0.4"
        },
        {
          "package": {
            "name": "is-stream"
          },
          "version": "1.1.0"
        },
        {
          "package": {
            "name": "is-typedarray"
          },
          "version": "1.0.0"
        },
        {
          "package": {
            "name": "is-utf8"
          },
          "version": "0.2.1"
        },
        {
          "package": {
            "name": "is-windows"
          },
          "version": "1.0.2"
        },
        {
          "package": {
            "name": "isarray"
          },
          "version": "1.0.0"
        },
        {
          "package": {
            "name": "isexe"
          },
          "version": "2.0.0"
        },
        {
          "package": {
            "name": "isobject"
          },
          "version": "2.1.0"
        },
        {
          "package": {
            "name": "isobject"
          },
          "version": "3.0.1"
        },
        {
          "package": {
            "name": "isstream"
          },
          "version": "0.1.2"
        },
        {
          "package": {
            "name": "istanbul-lib-coverage"
          },
          "version": "1.2.0"
        },
        {
          "package": {
            "name": "istanbul-lib-hook"
          },
          "version": "1.1.0"
        },
        {
          "package": {
            "name": "istanbul-lib-instrument"
          },
          "version": "1.10.1"
        },
        {
          "package": {
            "name": "istanbul-lib-report"
          },
          "version": "1.1.3"
        },
        {
          "package": {
            "name": "istanbul-lib-source-maps"
          },
          "version": "1.2.3"
        },
        {
          "package": {
            "name": "istanbul-reports"
          },
          "version": "1.4.0"
        },
        {
          "package": {
            "name": "js-tokens"
          },
          "version": "3.0.2"
        },
        {
          "package": {
            "name": "jsbn"
          },
          "version": "0.1.1"
        },
        {
          "package": {
            "name": "jsdom"
          },
          "version": "11.12.0"
        },
        {
          "package": {
            "name": "jsesc"
          },
          "version": "1.3.0"
        },
        {
          "package": {
            "name": "json-schema"
          },
          "version": "0.2.3"
        },
        {
          "package": {
            "name": "json-schema-traverse"
          },
          "version": "0.4.1"
        },
        {
          "package": {
            "name": "json-stringify-safe"
          },
          "version": "5.0.1"
        },
        {
          "package": {
            "name": "jsprim"
          },
          "version": "1.4.1"
        },
        {
          "package": {
            "name": "kind-of"
          },
          "version": "3.2.2"
        },
        {
          "package": {
            "name": "kind-of"
          },
          "version": "4.0.0"
        },
        {
          "package": {
            "name": "kind-of"
          },
          "version": "5.1.0"
        },
        {
          "package": {
            "name": "kind-of"
          },
          "version": "6.0.2"
        },
        {
          "package": {
            "name": "lazy-cache"
          },
          "version": "1.0.4"
        },
        {
          "package": {
            "name": "lcid"
          },
          "version": "1.0.0"
        },
        {
          "package": {
            "name": "left-pad"
          },
          "version": "1.3.0"
        },
        {
          "package": {
            "name": "levn"
          },
          "version": "0.3.0"
        },
        {
          "package": {
            "name": "load-json-file"
          },
          "version": "1.1.0"
        },
        {
          "package": {
            "name": "locate-path"
          },
          "version": "2.0.0"
        },
        {
          "package": {
            "name": "lodash"
          },
          "version": "4.17.10"
        },
        {
          "package": {
            "name": "lodash"
          },
          "version": "4.17.15"
        },
        {
          "package": {
            "name": "lodash.sortby"
          },
          "version": "4.7.0"
        },
        {
          "package": {
            "name": "longest"
          },
          "version": "1.0.1"
        },
        {
          "package": {
            "name": "loose-envify"
          },
          "version": "1.3.1"
        },
        {
          "package": {
            "name": "lru-cache"
          },
          "version": "4.1.3"
        },
        {
          "package": {
            "name": "map-cache"
          },
          "version": "0.2.2"
        },
        {
          "package": {
            "name": "map-visit"
          },
          "version": "1.0.0"
        },
        {
          "package": {
            "name": "md5-hex"
          },
          "version": "1.3.0"
        },
        {
          "package": {
            "name": "md5-o-matic"
          },
          "version": "0.1.1"
        },
        {
          "package": {
            "name": "mem"
          },
          "version": "1.1.0"
        },
        {
          "package": {
            "name": "merge-source-map"
          },
          "version": "1.1.0"
        },
        {
          "package": {
            "name": "micromatch"
          },
          "version": "3.1.10"
        },
        {
          "package": {
            "name": "mime-db"
          },
          "version": "1.42.0"
        },
        {
          "package": {
            "name": "mime-types"
          },
          "version": "2.1.25"
        },
        {
          "package": {
            "name": "mimic-fn"
          },
          "version": "1.2.0"
        },
        {
          "package": {
            "name": "minimatch"
          },
          "version": "3.0.4"
        },
        {
          "package": {
            "name": "minimist"
          },
          "version": "0.0.8"
        },
        {
          "package": {
            "name": "mixin-deep"
          },
          "version": "1.3.1"
        },
        {
          "package": {
            "name": "mkdirp"
          },
          "version": "0.5.1"
        },
        {
          "package": {
            "name": "moment"
          },
          "version": "2.24.0"
        },
        {
          "package": {
            "name": "ms"
          },
          "version": "2.0.0"
        },
        {
          "package": {
            "name": "nanomatch"
          },
          "version": "1.2.9"
        },
        {
          "package": {
            "name": "normalize-package-data"
          },
          "version": "2.4.0"
        },
        {
          "package": {
            "name": "normalize.css"
          },
          "version": "7.0.0"
        },
        {
          "package": {
            "name": "npm-run-path"
          },
          "version": "2.0.2"
        },
        {
          "package": {
            "name": "number-is-nan"
          },
          "version": "1.0.1"
        },
        {
          "package": {
            "name": "nwsapi"
          },
          "version": "2.2.0"
        },
        {
          "package": {
            "name": "nyc"
          },
          "version": "11.9.0"
        },
        {
          "package": {
            "name": "oauth-sign"
          },
          "version": "0.9.0"
        },
        {
          "package": {
            "name": "object-assign"
          },
          "version": "4.1.1"
        },
        {
          "package": {
            "name": "object-copy"
          },
          "version": "0.1.0"
        },
        {
          "package": {
            "name": "object-visit"
          },
          "version": "1.0.1"
        },
        {
          "package": {
            "name": "object.pick"
          },
          "version": "1.3.0"
        },
        {
          "package": {
            "name": "once"
          },
          "version": "1.4.0"
        },
        {
          "package": {
            "name": "optimist"
          },
          "version": "0.6.1"
        },
        {
          "package": {
            "name": "optionator"
          },
          "version": "0.8.3"
        },
        {
          "package": {
            "name": "os-homedir"
          },
          "version": "1.0.2"
        },
        {
          "package": {
            "name": "os-locale"
          },
          "version": "2.1.0"
        },
        {
          "package": {
            "name": "p-finally"
          },
          "version": "1.0.0"
        },
        {
          "package": {
            "name": "p-limit"
          },
          "version": "1.2.0"
        },
        {
          "package": {
            "name": "p-locate"
          },
          "version": "2.0.0"
        },
        {
          "package": {
            "name": "p-try"
          },
          "version": "1.0.0"
        },
        {
          "package": {
            "name": "parse-json"
          },
          "version": "2.2.0"
        },
        {
          "package": {
            "name": "parse5"
          },
          "version": "4.0.0"
        },
        {
          "package": {
            "name": "pascalcase"
          },
          "version": "0.1.1"
        },
        {
          "package": {
            "name": "path-exists"
          },
          "version": "2.1.0"
        },
        {
          "package": {
            "name": "path-exists"
          },
          "version": "3.0.0"
        },
        {
          "package": {
            "name": "path-is-absolute"
          },
          "version": "1.0.1"
        },
        {
          "package": {
            "name": "path-key"
          },
          "version": "2.0.1"
        },
        {
          "package": {
            "name": "path-parse"
          },
          "version": "1.0.5"
        },
        {
          "package": {
            "name": "path-type"
          },
          "version": "1.1.0"
        },
        {
          "package": {
            "name": "performance-now"
          },
          "version": "2.1.0"
        },
        {
          "package": {
            "name": "pify"
          },
          "version": "2.3.0"
        },
        {
          "package": {
            "name": "pinkie"
          },
          "version": "2.0.4"
        },
        {
          "package": {
            "name": "pinkie-promise"
          },
          "version": "2.0.1"
        },
        {
          "package": {
            "name": "pkg-dir"
          },
          "version": "1.0.0"
        },
        {
          "package": {
            "name": "pn"
          },
          "version": "1.1.0"
        },
        {
          "package": {
            "name": "posix-character-classes"
          },
          "version": "0.1.1"
        },
        {
          "package": {
            "name": "prelude-ls"
          },
          "version": "1.1.2"
        },
        {
          "package": {
            "name": "pseudomap"
          },
          "version": "1.0.2"
        },
        {
          "package": {
            "name": "psl"
          },
          "version": "1.5.0"
        },
        {
          "package": {
            "name": "punycode"
          },
          "version": "1.4.1"
        },
        {
          "package": {
            "name": "punycode"
          },
          "version": "2.1.1"
        },
        {
          "package": {
            "name": "qs"
          },
          "version": "6.5.2"
        },
        {
          "package": {
            "name": "read-pkg"
          },
          "version": "1.1.0"
        },
        {
          "package": {
            "name": "read-pkg-up"
          },
          "version": "1.0.1"
        },
        {
          "package": {
            "name": "regenerator-runtime"
          },
          "version": "0.11.1"
        },
        {
          "package": {
            "name": "regex-not"
          },
          "version": "1.0.2"
        },
        {
          "package": {
            "name": "repeat-element"
          },
          "version": "1.1.2"
        },
        {
          "package": {
            "name": "repeat-string"
          },
          "version": "1.6.1"
        },
        {
          "package": {
            "name": "repeating"
          },
          "version": "2.0.1"
        },
        {
          "package": {
            "name": "request"
          },
          "version": "2.88.0"
        },
        {
          "package": {
            "name": "request-promise-core"
          },
          "version": "1.1.3"
        },
        {
          "package": {
            "name": "request-promise-native"
          },
          "version": "1.0.8"
        },
        {
          "package": {
            "name": "require-directory"
          },
          "version": "2.1.1"
        },
        {
          "package": {
            "name": "require-main-filename"
          },
          "version": "1.0.1"
        },
        {
          "package": {
            "name": "resolve-from"
          },
          "version": "2.0.0"
        },
        {
          "package": {
            "name": "resolve-url"
          },
          "version": "0.2.1"
        },
        {
          "package": {
            "name": "ret"
          },
          "version": "0.1.15"
        },
        {
          "package": {
            "name": "right-align"
          },
          "version": "0.1.3"
        },
        {
          "package": {
            "name": "rimraf"
          },
          "version": "2.6.2"
        },
        {
          "package": {
            "name": "safe-buffer"
          },
          "version": "5.1.2"
        },
        {
          "package": {
            "name": "safe-regex"
          },
          "version": "1.1.0"
        },
        {
          "package": {
            "name": "safer-buffer"
          },
          "version": "2.1.2"
        },
        {
          "package": {
            "name": "sax"
          },
          "version": "1.2.4"
        },
        {
          "package": {
            "name": "semver"
          },
          "version": "5.5.0"
        },
        {
          "package": {
            "name": "set-blocking"
          },
          "version": "2.0.0"
        },
        {
          "package": {
            "name": "set-value"
          },
          "version": "0.4.3"
        },
        {
          "package": {
            "name": "set-value"
          },
          "version": "2.0.0"
        },
        {
          "package": {
            "name": "shebang-command"
          },
          "version": "1.2.0"
        },
        {
          "package": {
            "name": "shebang-regex"
          },
          "version": "1.0.0"
        },
        {
          "package": {
            "name": "signal-exit"
          },
          "version": "3.0.2"
        },
        {
          "package": {
            "name": "slide"
          },
          "version": "1.1.6"
        },
        {
          "package": {
            "name": "snapdragon"
          },
          "version": "0.8.2"
        },
        {
          "package": {
            "name": "snapdragon-node"
          },
          "version": "2.1.1"
        },
        {
          "package": {
            "name": "snapdragon-util"
          },
          "version": "3.0.1"
        },
        {
          "package": {
            "name": "source-map"
          },
          "version": "0.4.4"
        },
        {
          "package": {
            "name": "source-map"
          },
          "version": "0.5.7"
        },
        {
          "package": {
            "name": "source-map"
          },
          "version": "0.6.1"
        },
        {
          "package": {
            "name": "source-map-resolve"
          },
          "version": "0.5.1"
        },
        {
          "package": {
            "name": "source-map-url"
          },
          "version": "0.4.0"
        },
        {
          "package": {
            "name": "spawn-wrap"
          },
          "version": "1.4.2"
        },
        {
          "package": {
            "name": "spdx-correct"
          },
          "version": "3.0.0"
        },
        {
          "package": {
            "name": "spdx-exceptions"
          },
          "version": "2.1.0"
        },
        {
          "package": {
            "name": "spdx-expression-parse"
          },
          "version": "3.0.0"
        },
        {
          "package": {
            "name": "spdx-license-ids"
          },
          "version": "3.0.0"
        },
        {
          "package": {
            "name": "split-string"
          },
          "version": "3.1.0"
        },
        {
          "package": {
            "name": "sshpk"
          },
          "version": "1.16.1"
        },
        {
          "package": {
            "name": "static-extend"
          },
          "version": "0.1.2"
        },
        {
          "package": {
            "name": "stealthy-require"
          },
          "version": "1.1.1"
        },
        {
          "package": {
            "name": "string-width"
          },
          "version": "1.0.2"
        },
        {
          "package": {
            "name": "string-width"
          },
          "version": "2.1.1"
        },
        {
          "package": {
            "name": "strip-ansi"
          },
          "version": "3.0.1"
        },
        {
          "package": {
            "name": "strip-ansi"
          },
          "version": "4.0.0"
        },
        {
          "package": {
            "name": "strip-bom"
          },
          "version": "2.0.0"
        },
        {
          "package": {
            "name": "strip-eof"
          },
          "version": "1.0.0"
        },
        {
          "package": {
            "name": "supports-color"
          },
          "version": "2.0.0"
        },
        {
          "package": {
            "name": "supports-color"
          },
          "version": "3.2.3"
        },
        {
          "package": {
            "name": "symbol-tree"
          },
          "version": "3.2.4"
        },
        {
          "package": {
            "name": "test-exclude"
          },
          "version": "4.2.1"
        },
        {
          "package": {
            "name": "to-fast-properties"
          },
          "version": "1.0.3"
        },
        {
          "package": {
            "name": "to-object-path"
          },
          "version": "0.3.0"
        },
        {
          "package": {
            "name": "to-regex"
          },
          "version": "3.0.2"
        },
        {
          "package": {
            "name": "to-regex-range"
          },
          "version": "2.1.1"
        },
        {
          "package": {
            "name": "tough-cookie"
          },
          "version": "2.4.3"
        },
        {
          "package": {
            "name": "tr46"
          },
          "version": "1.0.1"
        },
        {
          "package": {
            "name": "trim-right"
          },
          "version": "1.0.1"
        },
        {
          "package": {
            "name": "tunnel-agent"
          },
          "version": "0.6.0"
        },
        {
          "package": {
            "name": "tweetnacl"
          },
          "version": "0.14.5"
        },
        {
          "package": {
            "name": "type-check"
          },
          "version": "0.3.2"
        },
        {
          "package": {
            "name": "uglify-js"
          },
          "version": "2.8.29"
        },
        {
          "package": {
            "name": "uglify-to-browserify"
          },
          "version": "1.0.2"
        },
        {
          "package": {
            "name": "union-value"
          },
          "version": "1.0.0"
        },
        {
          "package": {
            "name": "unset-value"
          },
          "version": "1.0.0"
        },
        {
          "package": {
            "name": "uri-js"
          },
          "version": "4.2.2"
        },
        {
          "package": {
            "name": "urix"
          },
          "version": "0.1.0"
        },
        {
          "package": {
            "name": "use"
          },
          "version": "3.1.0"
        },
        {
          "package": {
            "name": "uuid"
          },
          "version": "3.3.3"
        },
        {
          "package": {
            "name": "validate-npm-package-license"
          },
          "version": "3.0.3"
        },
        {
          "package": {
            "name": "verror"
          },
          "version": "1.10.0"
        },
        {
          "package": {
            "name": "w3c-hr-time"
          },
          "version": "1.0.1"
        },
        {
          "package": {
            "name": "webidl-conversions"
          },
          "version": "4.0.2"
        },
        {
          "package": {
            "name": "whatwg-encoding"
          },
          "version": "1.0.5"
        },
        {
          "package": {
            "name": "whatwg-mimetype"
          },
          "version": "2.3.0"
        },
        {
          "package": {
            "name": "whatwg-url"
          },
          "version": "6.5.0"
        },
        {
          "package": {
            "name": "whatwg-url"
          },
          "version": "7.1.0"
        },
        {
          "package": {
            "name": "which"
          },
          "version": "1.3.0"
        },
        {
          "package": {
            "name": "which-module"
          },
          "version": "2.0.0"
        },
        {
          "package": {
            "name": "window-size"
          },
          "version": "0.1.0"
        },
        {
          "package": {
            "name": "word-wrap"
          },
          "version": "1.2.3"
        },
        {
          "package": {
            "name": "wordwrap"
          },
          "version": "0.0.2"
        },
        {
          "package": {
            "name": "wordwrap"
          },
          "version": "0.0.3"
        },
        {
          "package": {
            "name": "wrap-ansi"
          },
          "version": "2.1.0"
        },
        {
          "package": {
            "name": "wrappy"
          },
          "version": "1.0.2"
        },
        {
          "package": {
            "name": "write-file-atomic"
          },
          "version": "1.3.4"
        },
        {
          "package": {
            "name": "ws"
          },
          "version": "5.2.2"
        },
        {
          "package": {
            "name": "xml-name-validator"
          },
          "version": "3.0.0"
        },
        {
          "package": {
            "name": "y18n"
          },
          "version": "3.2.1"
        },
        {
          "package": {
            "name": "yallist"
          },
          "version": "2.1.2"
        },
        {
          "package": {
            "name": "yargs"
          },
          "version": "11.1.0"
        },
        {
          "package": {
            "name": "yargs"
          },
          "version": "3.10.0"
        },
        {
          "package": {
            "name": "yargs-parser"
          },
          "version": "8.1.0"
        },
        {
          "package": {
            "name": "yargs-parser"
          },
          "version": "9.0.2"
        }
      ]
    }
  ],
  "scan": {
    "scanner": {
      "id": "gemnasium",
      "name": "Gemnasium",
      "url": "https://gitlab.com/gitlab-org/security-products/analyzers/gemnasium",
      "vendor": {
        "name": "GitLab"
      },
      "version": "2.29.5"
    },
    "type": "dependency_scanning",
    "start_time": "2021-03-26T04:53:12",
    "end_time": "2021-03-26T04:53:13",
    "status": "success"
  }
}
