[
  {
    "name": "@nuxtjs/axios",
    "version": "4.5.2"
  },
  {
    "name": "@nuxtjs/browserconfig",
    "version": "0.0.6"
  },
  {
    "name": "@nuxtjs/cssnano",
    "version": "1.0.1"
  },
  {
    "name": "@nuxtjs/icon",
    "version": "1.1.2"
  },
  {
    "name": "@nuxtjs/manifest",
    "version": "1.7.2"
  },
  {
    "name": "@nuxtjs/markdownit",
    "version": "1.2.0"
  },
  {
    "name": "@nuxtjs/markdownit-loader",
    "version": "1.1.1"
  },
  {
    "name": "@nuxtjs/optimize",
    "version": "1.1.1"
  },
  {
    "name": "@nuxtjs/sitemap",
    "version": "0.0.3"
  },
  {
    "name": "@nuxtjs/workbox",
    "version": "1.2.2"
  },
  {
    "name": "@nuxtjs/youch",
    "version": "4.2.3"
  },
  {
    "name": "@types/node",
    "version": "9.3.0"
  },
  {
    "name": "abab",
    "version": "1.0.4"
  },
  {
    "name": "abbrev",
    "version": "1.1.0"
  },
  {
    "name": "accepts",
    "version": "1.3.4"
  },
  {
    "name": "acorn",
    "version": "3.3.0"
  },
  {
    "name": "acorn",
    "version": "4.0.13"
  },
  {
    "name": "acorn",
    "version": "5.3.0"
  },
  {
    "name": "acorn-dynamic-import",
    "version": "2.0.2"
  },
  {
    "name": "acorn-globals",
    "version": "4.1.0"
  },
  {
    "name": "acorn-jsx",
    "version": "3.0.1"
  },
  {
    "name": "ajv",
    "version": "4.11.8"
  },
  {
    "name": "ajv",
    "version": "5.5.2"
  },
  {
    "name": "ajv-keywords",
    "version": "2.1.1"
  },
  {
    "name": "align-text",
    "version": "0.1.4"
  },
  {
    "name": "alphanum-sort",
    "version": "1.0.2"
  },
  {
    "name": "amdefine",
    "version": "1.0.1"
  },
  {
    "name": "ansi-escapes",
    "version": "1.4.0"
  },
  {
    "name": "ansi-html",
    "version": "0.0.7"
  },
  {
    "name": "ansi-regex",
    "version": "2.1.1"
  },
  {
    "name": "ansi-regex",
    "version": "3.0.0"
  },
  {
    "name": "ansi-styles",
    "version": "2.2.1"
  },
  {
    "name": "ansi-styles",
    "version": "3.2.0"
  },
  {
    "name": "anymatch",
    "version": "1.3.2"
  },
  {
    "name": "anymatch",
    "version": "2.0.0"
  },
  {
    "name": "append-transform",
    "version": "0.4.0"
  },
  {
    "name": "aproba",
    "version": "1.1.1"
  },
  {
    "name": "aproba",
    "version": "1.2.0"
  },
  {
    "name": "archy",
    "version": "1.0.0"
  },
  {
    "name": "are-we-there-yet",
    "version": "1.1.4"
  },
  {
    "name": "argparse",
    "version": "1.0.9"
  },
  {
    "name": "arr-diff",
    "version": "2.0.0"
  },
  {
    "name": "arr-diff",
    "version": "4.0.0"
  },
  {
    "name": "arr-flatten",
    "version": "1.1.0"
  },
  {
    "name": "arr-union",
    "version": "3.1.0"
  },
  {
    "name": "array-equal",
    "version": "1.0.0"
  },
  {
    "name": "array-filter",
    "version": "0.0.1"
  },
  {
    "name": "array-find-index",
    "version": "1.0.2"
  },
  {
    "name": "array-flatten",
    "version": "1.1.1"
  },
  {
    "name": "array-map",
    "version": "0.0.0"
  },
  {
    "name": "array-reduce",
    "version": "0.0.0"
  },
  {
    "name": "array-union",
    "version": "1.0.2"
  },
  {
    "name": "array-uniq",
    "version": "1.0.3"
  },
  {
    "name": "array-unique",
    "version": "0.2.1"
  },
  {
    "name": "array-unique",
    "version": "0.3.2"
  },
  {
    "name": "arrify",
    "version": "1.0.1"
  },
  {
    "name": "asn1",
    "version": "0.2.3"
  },
  {
    "name": "asn1.js",
    "version": "4.9.2"
  },
  {
    "name": "assert",
    "version": "1.4.1"
  },
  {
    "name": "assert-plus",
    "version": "0.2.0"
  },
  {
    "name": "assert-plus",
    "version": "1.0.0"
  },
  {
    "name": "assertion-error",
    "version": "1.1.0"
  },
  {
    "name": "assign-symbols",
    "version": "1.0.0"
  },
  {
    "name": "async",
    "version": "1.5.2"
  },
  {
    "name": "async",
    "version": "2.6.0"
  },
  {
    "name": "async-cache",
    "version": "1.1.0"
  },
  {
    "name": "async-each",
    "version": "1.0.1"
  },
  {
    "name": "async-limiter",
    "version": "1.0.0"
  },
  {
    "name": "asynckit",
    "version": "0.4.0"
  },
  {
    "name": "atob",
    "version": "2.0.3"
  },
  {
    "name": "autoprefixer",
    "version": "6.7.7"
  },
  {
    "name": "autoprefixer",
    "version": "7.2.5"
  },
  {
    "name": "aws-sign2",
    "version": "0.6.0"
  },
  {
    "name": "aws-sign2",
    "version": "0.7.0"
  },
  {
    "name": "aws4",
    "version": "1.6.0"
  },
  {
    "name": "axios",
    "version": "0.17.1"
  },
  {
    "name": "babel-code-frame",
    "version": "6.26.0"
  },
  {
    "name": "babel-core",
    "version": "6.26.0"
  },
  {
    "name": "babel-eslint",
    "version": "7.2.3"
  },
  {
    "name": "babel-generator",
    "version": "6.26.0"
  },
  {
    "name": "babel-helper-builder-binary-assignment-operator-visitor",
    "version": "6.24.1"
  },
  {
    "name": "babel-helper-call-delegate",
    "version": "6.24.1"
  },
  {
    "name": "babel-helper-define-map",
    "version": "6.26.0"
  },
  {
    "name": "babel-helper-explode-assignable-expression",
    "version": "6.24.1"
  },
  {
    "name": "babel-helper-function-name",
    "version": "6.24.1"
  },
  {
    "name": "babel-helper-get-function-arity",
    "version": "6.24.1"
  },
  {
    "name": "babel-helper-hoist-variables",
    "version": "6.24.1"
  },
  {
    "name": "babel-helper-optimise-call-expression",
    "version": "6.24.1"
  },
  {
    "name": "babel-helper-regex",
    "version": "6.26.0"
  },
  {
    "name": "babel-helper-remap-async-to-generator",
    "version": "6.24.1"
  },
  {
    "name": "babel-helper-replace-supers",
    "version": "6.24.1"
  },
  {
    "name": "babel-helper-vue-jsx-merge-props",
    "version": "2.0.3"
  },
  {
    "name": "babel-helpers",
    "version": "6.24.1"
  },
  {
    "name": "babel-loader",
    "version": "7.1.2"
  },
  {
    "name": "babel-messages",
    "version": "6.23.0"
  },
  {
    "name": "babel-plugin-check-es2015-constants",
    "version": "6.22.0"
  },
  {
    "name": "babel-plugin-jsx-event-modifiers",
    "version": "2.0.5"
  },
  {
    "name": "babel-plugin-jsx-v-model",
    "version": "2.0.3"
  },
  {
    "name": "babel-plugin-syntax-async-functions",
    "version": "6.13.0"
  },
  {
    "name": "babel-plugin-syntax-dynamic-import",
    "version": "6.18.0"
  },
  {
    "name": "babel-plugin-syntax-exponentiation-operator",
    "version": "6.13.0"
  },
  {
    "name": "babel-plugin-syntax-jsx",
    "version": "6.18.0"
  },
  {
    "name": "babel-plugin-syntax-object-rest-spread",
    "version": "6.13.0"
  },
  {
    "name": "babel-plugin-syntax-trailing-function-commas",
    "version": "6.22.0"
  },
  {
    "name": "babel-plugin-transform-async-to-generator",
    "version": "6.24.1"
  },
  {
    "name": "babel-plugin-transform-es2015-arrow-functions",
    "version": "6.22.0"
  },
  {
    "name": "babel-plugin-transform-es2015-block-scoped-functions",
    "version": "6.22.0"
  },
  {
    "name": "babel-plugin-transform-es2015-block-scoping",
    "version": "6.26.0"
  },
  {
    "name": "babel-plugin-transform-es2015-classes",
    "version": "6.24.1"
  },
  {
    "name": "babel-plugin-transform-es2015-computed-properties",
    "version": "6.24.1"
  },
  {
    "name": "babel-plugin-transform-es2015-destructuring",
    "version": "6.23.0"
  },
  {
    "name": "babel-plugin-transform-es2015-duplicate-keys",
    "version": "6.24.1"
  },
  {
    "name": "babel-plugin-transform-es2015-for-of",
    "version": "6.23.0"
  },
  {
    "name": "babel-plugin-transform-es2015-function-name",
    "version": "6.24.1"
  },
  {
    "name": "babel-plugin-transform-es2015-literals",
    "version": "6.22.0"
  },
  {
    "name": "babel-plugin-transform-es2015-modules-amd",
    "version": "6.24.1"
  },
  {
    "name": "babel-plugin-transform-es2015-modules-commonjs",
    "version": "6.26.0"
  },
  {
    "name": "babel-plugin-transform-es2015-modules-systemjs",
    "version": "6.24.1"
  },
  {
    "name": "babel-plugin-transform-es2015-modules-umd",
    "version": "6.24.1"
  },
  {
    "name": "babel-plugin-transform-es2015-object-super",
    "version": "6.24.1"
  },
  {
    "name": "babel-plugin-transform-es2015-parameters",
    "version": "6.24.1"
  },
  {
    "name": "babel-plugin-transform-es2015-shorthand-properties",
    "version": "6.24.1"
  },
  {
    "name": "babel-plugin-transform-es2015-spread",
    "version": "6.22.0"
  },
  {
    "name": "babel-plugin-transform-es2015-sticky-regex",
    "version": "6.24.1"
  },
  {
    "name": "babel-plugin-transform-es2015-template-literals",
    "version": "6.22.0"
  },
  {
    "name": "babel-plugin-transform-es2015-typeof-symbol",
    "version": "6.23.0"
  },
  {
    "name": "babel-plugin-transform-es2015-unicode-regex",
    "version": "6.24.1"
  },
  {
    "name": "babel-plugin-transform-exponentiation-operator",
    "version": "6.24.1"
  },
  {
    "name": "babel-plugin-transform-object-rest-spread",
    "version": "6.26.0"
  },
  {
    "name": "babel-plugin-transform-regenerator",
    "version": "6.26.0"
  },
  {
    "name": "babel-plugin-transform-runtime",
    "version": "6.23.0"
  },
  {
    "name": "babel-plugin-transform-strict-mode",
    "version": "6.24.1"
  },
  {
    "name": "babel-plugin-transform-vue-jsx",
    "version": "3.5.0"
  },
  {
    "name": "babel-polyfill",
    "version": "6.23.0"
  },
  {
    "name": "babel-preset-env",
    "version": "1.6.1"
  },
  {
    "name": "babel-preset-vue",
    "version": "2.0.0"
  },
  {
    "name": "babel-preset-vue-app",
    "version": "2.0.0"
  },
  {
    "name": "babel-register",
    "version": "6.26.0"
  },
  {
    "name": "babel-runtime",
    "version": "6.26.0"
  },
  {
    "name": "babel-template",
    "version": "6.26.0"
  },
  {
    "name": "babel-traverse",
    "version": "6.26.0"
  },
  {
    "name": "babel-types",
    "version": "6.26.0"
  },
  {
    "name": "babylon",
    "version": "6.18.0"
  },
  {
    "name": "balanced-match",
    "version": "0.1.0"
  },
  {
    "name": "balanced-match",
    "version": "0.4.2"
  },
  {
    "name": "balanced-match",
    "version": "1.0.0"
  },
  {
    "name": "base",
    "version": "0.11.2"
  },
  {
    "name": "base64-js",
    "version": "1.2.1"
  },
  {
    "name": "bcrypt-pbkdf",
    "version": "1.0.1"
  },
  {
    "name": "bezier-easing",
    "version": "2.0.3"
  },
  {
    "name": "big.js",
    "version": "3.2.0"
  },
  {
    "name": "bignumber.js",
    "version": "2.4.0"
  },
  {
    "name": "binary-extensions",
    "version": "1.11.0"
  },
  {
    "name": "block-stream",
    "version": "0.0.9"
  },
  {
    "name": "bluebird",
    "version": "3.5.1"
  },
  {
    "name": "bmp-js",
    "version": "0.0.3"
  },
  {
    "name": "bn.js",
    "version": "4.11.8"
  },
  {
    "name": "body-parser",
    "version": "1.18.2"
  },
  {
    "name": "boolbase",
    "version": "1.0.0"
  },
  {
    "name": "boom",
    "version": "2.10.1"
  },
  {
    "name": "boom",
    "version": "4.3.1"
  },
  {
    "name": "boom",
    "version": "5.2.0"
  },
  {
    "name": "brace-expansion",
    "version": "1.1.7"
  },
  {
    "name": "brace-expansion",
    "version": "1.1.8"
  },
  {
    "name": "braces",
    "version": "1.8.5"
  },
  {
    "name": "braces",
    "version": "2.3.0"
  },
  {
    "name": "brorand",
    "version": "1.1.0"
  },
  {
    "name": "browser-env",
    "version": "3.2.4"
  },
  {
    "name": "browser-process-hrtime",
    "version": "0.1.2"
  },
  {
    "name": "browser-stdout",
    "version": "1.3.0"
  },
  {
    "name": "browserify-aes",
    "version": "1.1.1"
  },
  {
    "name": "browserify-cipher",
    "version": "1.0.0"
  },
  {
    "name": "browserify-des",
    "version": "1.0.0"
  },
  {
    "name": "browserify-rsa",
    "version": "4.0.1"
  },
  {
    "name": "browserify-sign",
    "version": "4.0.4"
  },
  {
    "name": "browserify-zlib",
    "version": "0.2.0"
  },
  {
    "name": "browserslist",
    "version": "1.7.7"
  },
  {
    "name": "browserslist",
    "version": "2.11.3"
  },
  {
    "name": "buffer",
    "version": "4.9.1"
  },
  {
    "name": "buffer-equal",
    "version": "0.0.1"
  },
  {
    "name": "buffer-shims",
    "version": "1.0.0"
  },
  {
    "name": "buffer-xor",
    "version": "1.0.3"
  },
  {
    "name": "builtin-modules",
    "version": "1.1.1"
  },
  {
    "name": "builtin-status-codes",
    "version": "3.0.0"
  },
  {
    "name": "bytes",
    "version": "3.0.0"
  },
  {
    "name": "cacache",
    "version": "10.0.2"
  },
  {
    "name": "cache-base",
    "version": "1.0.1"
  },
  {
    "name": "caching-transform",
    "version": "1.0.1"
  },
  {
    "name": "caller-path",
    "version": "0.1.0"
  },
  {
    "name": "callsites",
    "version": "0.2.0"
  },
  {
    "name": "camel-case",
    "version": "3.0.0"
  },
  {
    "name": "camelcase",
    "version": "1.2.1"
  },
  {
    "name": "camelcase",
    "version": "3.0.0"
  },
  {
    "name": "camelcase",
    "version": "4.1.0"
  },
  {
    "name": "caniuse-api",
    "version": "1.6.1"
  },
  {
    "name": "caniuse-api",
    "version": "2.0.0"
  },
  {
    "name": "caniuse-db",
    "version": "1.0.30000793"
  },
  {
    "name": "caniuse-lite",
    "version": "1.0.30000792"
  },
  {
    "name": "caseless",
    "version": "0.12.0"
  },
  {
    "name": "center-align",
    "version": "0.1.3"
  },
  {
    "name": "chai",
    "version": "4.1.2"
  },
  {
    "name": "chalk",
    "version": "1.1.3"
  },
  {
    "name": "chalk",
    "version": "2.3.0"
  },
  {
    "name": "chardet",
    "version": "0.4.2"
  },
  {
    "name": "check-error",
    "version": "1.0.2"
  },
  {
    "name": "chokidar",
    "version": "1.7.0"
  },
  {
    "name": "chokidar",
    "version": "2.0.0"
  },
  {
    "name": "chownr",
    "version": "1.0.1"
  },
  {
    "name": "ci-info",
    "version": "1.1.2"
  },
  {
    "name": "cipher-base",
    "version": "1.0.4"
  },
  {
    "name": "circular-json",
    "version": "0.3.3"
  },
  {
    "name": "clap",
    "version": "1.2.3"
  },
  {
    "name": "class-utils",
    "version": "0.3.6"
  },
  {
    "name": "clean-css",
    "version": "4.1.9"
  },
  {
    "name": "cli-cursor",
    "version": "2.1.0"
  },
  {
    "name": "cli-width",
    "version": "2.2.0"
  },
  {
    "name": "cliui",
    "version": "2.1.0"
  },
  {
    "name": "cliui",
    "version": "3.2.0"
  },
  {
    "name": "clone",
    "version": "1.0.3"
  },
  {
    "name": "clone",
    "version": "2.1.1"
  },
  {
    "name": "co",
    "version": "4.6.0"
  },
  {
    "name": "coa",
    "version": "1.0.4"
  },
  {
    "name": "code-point-at",
    "version": "1.1.0"
  },
  {
    "name": "collection-visit",
    "version": "1.0.0"
  },
  {
    "name": "color",
    "version": "0.11.4"
  },
  {
    "name": "color",
    "version": "1.0.3"
  },
  {
    "name": "color",
    "version": "2.0.1"
  },
  {
    "name": "color-convert",
    "version": "1.9.1"
  },
  {
    "name": "color-name",
    "version": "1.1.3"
  },
  {
    "name": "color-string",
    "version": "0.3.0"
  },
  {
    "name": "color-string",
    "version": "1.5.2"
  },
  {
    "name": "colormin",
    "version": "1.1.2"
  },
  {
    "name": "colors",
    "version": "1.1.2"
  },
  {
    "name": "combined-stream",
    "version": "1.0.5"
  },
  {
    "name": "commander",
    "version": "2.12.2"
  },
  {
    "name": "commander",
    "version": "2.13.0"
  },
  {
    "name": "commander",
    "version": "2.9.0"
  },
  {
    "name": "commondir",
    "version": "1.0.1"
  },
  {
    "name": "component-emitter",
    "version": "1.2.1"
  },
  {
    "name": "compressible",
    "version": "2.0.12"
  },
  {
    "name": "compression",
    "version": "1.7.1"
  },
  {
    "name": "concat-map",
    "version": "0.0.1"
  },
  {
    "name": "concat-stream",
    "version": "1.6.0"
  },
  {
    "name": "connect",
    "version": "3.6.5"
  },
  {
    "name": "console-browserify",
    "version": "1.1.0"
  },
  {
    "name": "console-control-strings",
    "version": "1.1.0"
  },
  {
    "name": "consolidate",
    "version": "0.14.5"
  },
  {
    "name": "constants-browserify",
    "version": "1.0.0"
  },
  {
    "name": "contains-path",
    "version": "0.1.0"
  },
  {
    "name": "content-disposition",
    "version": "0.5.2"
  },
  {
    "name": "content-type",
    "version": "1.0.4"
  },
  {
    "name": "content-type-parser",
    "version": "1.0.2"
  },
  {
    "name": "convert-source-map",
    "version": "1.5.1"
  },
  {
    "name": "cookie",
    "version": "0.3.1"
  },
  {
    "name": "cookie-signature",
    "version": "1.0.6"
  },
  {
    "name": "copy-concurrently",
    "version": "1.0.5"
  },
  {
    "name": "copy-descriptor",
    "version": "0.1.1"
  },
  {
    "name": "core-js",
    "version": "2.5.3"
  },
  {
    "name": "core-util-is",
    "version": "1.0.2"
  },
  {
    "name": "cosmiconfig",
    "version": "2.2.2"
  },
  {
    "name": "coveralls",
    "version": "3.0.0"
  },
  {
    "name": "create-ecdh",
    "version": "4.0.0"
  },
  {
    "name": "create-hash",
    "version": "1.1.3"
  },
  {
    "name": "create-hmac",
    "version": "1.1.6"
  },
  {
    "name": "cross-spawn",
    "version": "4.0.2"
  },
  {
    "name": "cross-spawn",
    "version": "5.1.0"
  },
  {
    "name": "cryptiles",
    "version": "2.0.5"
  },
  {
    "name": "cryptiles",
    "version": "3.1.2"
  },
  {
    "name": "crypto-browserify",
    "version": "3.12.0"
  },
  {
    "name": "css-color-function",
    "version": "1.3.3"
  },
  {
    "name": "css-color-names",
    "version": "0.0.4"
  },
  {
    "name": "css-hot-loader",
    "version": "1.3.5"
  },
  {
    "name": "css-loader",
    "version": "0.28.9"
  },
  {
    "name": "css-parse",
    "version": "1.7.0"
  },
  {
    "name": "css-select",
    "version": "1.2.0"
  },
  {
    "name": "css-selector-tokenizer",
    "version": "0.7.0"
  },
  {
    "name": "css-unit-converter",
    "version": "1.1.1"
  },
  {
    "name": "css-what",
    "version": "2.1.0"
  },
  {
    "name": "cssesc",
    "version": "0.1.0"
  },
  {
    "name": "cssnano",
    "version": "3.10.0"
  },
  {
    "name": "csso",
    "version": "2.3.2"
  },
  {
    "name": "cssom",
    "version": "0.3.2"
  },
  {
    "name": "cssstyle",
    "version": "0.2.37"
  },
  {
    "name": "cuint",
    "version": "0.2.2"
  },
  {
    "name": "currently-unhandled",
    "version": "0.4.1"
  },
  {
    "name": "cyclist",
    "version": "0.2.2"
  },
  {
    "name": "d",
    "version": "1.0.0"
  },
  {
    "name": "dashdash",
    "version": "1.14.1"
  },
  {
    "name": "data2xml",
    "version": "1.2.5"
  },
  {
    "name": "date-fns",
    "version": "1.29.0"
  },
  {
    "name": "date-now",
    "version": "0.1.4"
  },
  {
    "name": "de-indent",
    "version": "1.0.2"
  },
  {
    "name": "debug",
    "version": "2.6.8"
  },
  {
    "name": "debug",
    "version": "2.6.9"
  },
  {
    "name": "debug",
    "version": "3.1.0"
  },
  {
    "name": "debug-log",
    "version": "1.0.1"
  },
  {
    "name": "decamelize",
    "version": "1.2.0"
  },
  {
    "name": "decode-uri-component",
    "version": "0.2.0"
  },
  {
    "name": "deep-eql",
    "version": "3.0.1"
  },
  {
    "name": "deep-extend",
    "version": "0.4.2"
  },
  {
    "name": "deep-is",
    "version": "0.1.3"
  },
  {
    "name": "deepmerge",
    "version": "2.0.1"
  },
  {
    "name": "default-require-extensions",
    "version": "1.0.0"
  },
  {
    "name": "define-properties",
    "version": "1.1.2"
  },
  {
    "name": "define-property",
    "version": "0.2.5"
  },
  {
    "name": "define-property",
    "version": "1.0.0"
  },
  {
    "name": "defined",
    "version": "1.0.0"
  },
  {
    "name": "del",
    "version": "2.2.2"
  },
  {
    "name": "delayed-stream",
    "version": "1.0.0"
  },
  {
    "name": "delegates",
    "version": "1.0.0"
  },
  {
    "name": "depd",
    "version": "1.1.1"
  },
  {
    "name": "depd",
    "version": "1.1.2"
  },
  {
    "name": "des.js",
    "version": "1.0.0"
  },
  {
    "name": "destroy",
    "version": "1.0.4"
  },
  {
    "name": "detect-indent",
    "version": "4.0.0"
  },
  {
    "name": "detect-libc",
    "version": "1.0.2"
  },
  {
    "name": "diff",
    "version": "3.2.0"
  },
  {
    "name": "diffie-hellman",
    "version": "5.0.2"
  },
  {
    "name": "doctrine",
    "version": "1.5.0"
  },
  {
    "name": "doctrine",
    "version": "2.1.0"
  },
  {
    "name": "dom-converter",
    "version": "0.1.4"
  },
  {
    "name": "dom-serializer",
    "version": "0.1.0"
  },
  {
    "name": "dom-walk",
    "version": "0.1.1"
  },
  {
    "name": "domain-browser",
    "version": "1.1.7"
  },
  {
    "name": "domelementtype",
    "version": "1.1.3"
  },
  {
    "name": "domelementtype",
    "version": "1.3.0"
  },
  {
    "name": "domexception",
    "version": "1.0.1"
  },
  {
    "name": "domhandler",
    "version": "2.1.0"
  },
  {
    "name": "domhandler",
    "version": "2.4.1"
  },
  {
    "name": "domutils",
    "version": "1.1.6"
  },
  {
    "name": "domutils",
    "version": "1.5.1"
  },
  {
    "name": "duplexer",
    "version": "0.1.1"
  },
  {
    "name": "duplexify",
    "version": "3.5.3"
  },
  {
    "name": "ecc-jsbn",
    "version": "0.1.1"
  },
  {
    "name": "ee-first",
    "version": "1.1.1"
  },
  {
    "name": "ejs",
    "version": "2.5.7"
  },
  {
    "name": "electron-to-chromium",
    "version": "1.3.31"
  },
  {
    "name": "elliptic",
    "version": "6.4.0"
  },
  {
    "name": "emojis-list",
    "version": "2.1.0"
  },
  {
    "name": "encodeurl",
    "version": "1.0.2"
  },
  {
    "name": "encoding",
    "version": "0.1.12"
  },
  {
    "name": "end-of-stream",
    "version": "1.4.1"
  },
  {
    "name": "enhanced-resolve",
    "version": "3.4.1"
  },
  {
    "name": "entities",
    "version": "1.1.1"
  },
  {
    "name": "errno",
    "version": "0.1.6"
  },
  {
    "name": "error-ex",
    "version": "1.3.1"
  },
  {
    "name": "error-stack-parser",
    "version": "2.0.1"
  },
  {
    "name": "es5-ext",
    "version": "0.10.38"
  },
  {
    "name": "es6-iterator",
    "version": "2.0.3"
  },
  {
    "name": "es6-map",
    "version": "0.1.5"
  },
  {
    "name": "es6-promise",
    "version": "3.3.1"
  },
  {
    "name": "es6-promise",
    "version": "4.2.2"
  },
  {
    "name": "es6-set",
    "version": "0.1.5"
  },
  {
    "name": "es6-symbol",
    "version": "3.1.1"
  },
  {
    "name": "es6-weak-map",
    "version": "2.0.2"
  },
  {
    "name": "escape-html",
    "version": "1.0.3"
  },
  {
    "name": "escape-string-regexp",
    "version": "1.0.5"
  },
  {
    "name": "escodegen",
    "version": "1.9.0"
  },
  {
    "name": "escope",
    "version": "3.6.0"
  },
  {
    "name": "eslint",
    "version": "4.16.0"
  },
  {
    "name": "eslint-config-standard",
    "version": "10.2.1"
  },
  {
    "name": "eslint-import-resolver-node",
    "version": "0.3.2"
  },
  {
    "name": "eslint-loader",
    "version": "1.9.0"
  },
  {
    "name": "eslint-module-utils",
    "version": "2.1.1"
  },
  {
    "name": "eslint-plugin-html",
    "version": "3.2.2"
  },
  {
    "name": "eslint-plugin-import",
    "version": "2.8.0"
  },
  {
    "name": "eslint-plugin-node",
    "version": "5.2.1"
  },
  {
    "name": "eslint-plugin-promise",
    "version": "3.6.0"
  },
  {
    "name": "eslint-plugin-standard",
    "version": "3.0.1"
  },
  {
    "name": "eslint-scope",
    "version": "3.7.1"
  },
  {
    "name": "eslint-visitor-keys",
    "version": "1.0.0"
  },
  {
    "name": "espree",
    "version": "3.5.2"
  },
  {
    "name": "esprima",
    "version": "2.7.3"
  },
  {
    "name": "esprima",
    "version": "3.1.3"
  },
  {
    "name": "esprima",
    "version": "4.0.0"
  },
  {
    "name": "esquery",
    "version": "1.0.0"
  },
  {
    "name": "esrecurse",
    "version": "4.2.0"
  },
  {
    "name": "estraverse",
    "version": "4.2.0"
  },
  {
    "name": "esutils",
    "version": "2.0.2"
  },
  {
    "name": "etag",
    "version": "1.8.1"
  },
  {
    "name": "event-emitter",
    "version": "0.3.5"
  },
  {
    "name": "events",
    "version": "1.1.1"
  },
  {
    "name": "evp_bytestokey",
    "version": "1.0.3"
  },
  {
    "name": "execa",
    "version": "0.7.0"
  },
  {
    "name": "exif-parser",
    "version": "0.1.12"
  },
  {
    "name": "expand-brackets",
    "version": "0.1.5"
  },
  {
    "name": "expand-brackets",
    "version": "2.1.4"
  },
  {
    "name": "expand-range",
    "version": "1.8.2"
  },
  {
    "name": "express",
    "version": "4.16.2"
  },
  {
    "name": "extend",
    "version": "3.0.1"
  },
  {
    "name": "extend-shallow",
    "version": "2.0.1"
  },
  {
    "name": "extend-shallow",
    "version": "3.0.2"
  },
  {
    "name": "external-editor",
    "version": "2.1.0"
  },
  {
    "name": "extglob",
    "version": "0.3.2"
  },
  {
    "name": "extglob",
    "version": "2.0.4"
  },
  {
    "name": "extract-text-webpack-plugin",
    "version": "3.0.2"
  },
  {
    "name": "extsprintf",
    "version": "1.0.2"
  },
  {
    "name": "extsprintf",
    "version": "1.3.0"
  },
  {
    "name": "fast-deep-equal",
    "version": "1.0.0"
  },
  {
    "name": "fast-json-stable-stringify",
    "version": "2.0.0"
  },
  {
    "name": "fast-levenshtein",
    "version": "2.0.6"
  },
  {
    "name": "fastparse",
    "version": "1.1.1"
  },
  {
    "name": "figures",
    "version": "2.0.0"
  },
  {
    "name": "file-entry-cache",
    "version": "2.0.0"
  },
  {
    "name": "file-loader",
    "version": "1.1.6"
  },
  {
    "name": "file-type",
    "version": "3.9.0"
  },
  {
    "name": "filename-regex",
    "version": "2.0.1"
  },
  {
    "name": "filesize",
    "version": "3.5.11"
  },
  {
    "name": "fill-range",
    "version": "2.2.3"
  },
  {
    "name": "fill-range",
    "version": "4.0.0"
  },
  {
    "name": "finalhandler",
    "version": "1.0.6"
  },
  {
    "name": "finalhandler",
    "version": "1.1.0"
  },
  {
    "name": "find-cache-dir",
    "version": "0.1.1"
  },
  {
    "name": "find-cache-dir",
    "version": "1.0.0"
  },
  {
    "name": "find-up",
    "version": "1.1.2"
  },
  {
    "name": "find-up",
    "version": "2.1.0"
  },
  {
    "name": "flat-cache",
    "version": "1.3.0"
  },
  {
    "name": "flatten",
    "version": "1.0.2"
  },
  {
    "name": "flush-write-stream",
    "version": "1.0.2"
  },
  {
    "name": "follow-redirects",
    "version": "1.4.0"
  },
  {
    "name": "for-each",
    "version": "0.3.2"
  },
  {
    "name": "for-in",
    "version": "1.0.2"
  },
  {
    "name": "for-own",
    "version": "0.1.5"
  },
  {
    "name": "foreach",
    "version": "2.0.5"
  },
  {
    "name": "foreground-child",
    "version": "1.5.6"
  },
  {
    "name": "forever-agent",
    "version": "0.6.1"
  },
  {
    "name": "form-data",
    "version": "2.1.4"
  },
  {
    "name": "form-data",
    "version": "2.3.1"
  },
  {
    "name": "forwarded",
    "version": "0.1.2"
  },
  {
    "name": "fragment-cache",
    "version": "0.2.1"
  },
  {
    "name": "fresh",
    "version": "0.5.2"
  },
  {
    "name": "friendly-errors-webpack-plugin",
    "version": "1.6.1"
  },
  {
    "name": "from2",
    "version": "2.3.0"
  },
  {
    "name": "front-matter",
    "version": "2.3.0"
  },
  {
    "name": "fs-extra",
    "version": "0.30.0"
  },
  {
    "name": "fs-extra",
    "version": "3.0.1"
  },
  {
    "name": "fs-extra",
    "version": "4.0.3"
  },
  {
    "name": "fs-extra",
    "version": "5.0.0"
  },
  {
    "name": "fs-write-stream-atomic",
    "version": "1.0.10"
  },
  {
    "name": "fs.realpath",
    "version": "1.0.0"
  },
  {
    "name": "fsevents",
    "version": "1.1.3"
  },
  {
    "name": "fstream",
    "version": "1.0.11"
  },
  {
    "name": "fstream-ignore",
    "version": "1.0.5"
  },
  {
    "name": "function-bind",
    "version": "1.1.1"
  },
  {
    "name": "functional-red-black-tree",
    "version": "1.0.1"
  },
  {
    "name": "gauge",
    "version": "2.7.4"
  },
  {
    "name": "get-caller-file",
    "version": "1.0.2"
  },
  {
    "name": "get-func-name",
    "version": "2.0.0"
  },
  {
    "name": "get-stream",
    "version": "3.0.0"
  },
  {
    "name": "get-value",
    "version": "2.0.6"
  },
  {
    "name": "getpass",
    "version": "0.1.7"
  },
  {
    "name": "glob",
    "version": "7.0.6"
  },
  {
    "name": "glob",
    "version": "7.1.1"
  },
  {
    "name": "glob",
    "version": "7.1.2"
  },
  {
    "name": "glob-base",
    "version": "0.3.0"
  },
  {
    "name": "glob-parent",
    "version": "2.0.0"
  },
  {
    "name": "glob-parent",
    "version": "3.1.0"
  },
  {
    "name": "global",
    "version": "4.3.2"
  },
  {
    "name": "globals",
    "version": "11.1.0"
  },
  {
    "name": "globals",
    "version": "9.18.0"
  },
  {
    "name": "globby",
    "version": "5.0.0"
  },
  {
    "name": "graceful-fs",
    "version": "4.1.11"
  },
  {
    "name": "graceful-readlink",
    "version": "1.0.1"
  },
  {
    "name": "growl",
    "version": "1.9.2"
  },
  {
    "name": "gzip-size",
    "version": "3.0.0"
  },
  {
    "name": "handlebars",
    "version": "4.0.11"
  },
  {
    "name": "har-schema",
    "version": "1.0.5"
  },
  {
    "name": "har-schema",
    "version": "2.0.0"
  },
  {
    "name": "har-validator",
    "version": "4.2.1"
  },
  {
    "name": "har-validator",
    "version": "5.0.3"
  },
  {
    "name": "has",
    "version": "1.0.1"
  },
  {
    "name": "has-ansi",
    "version": "2.0.0"
  },
  {
    "name": "has-flag",
    "version": "1.0.0"
  },
  {
    "name": "has-flag",
    "version": "2.0.0"
  },
  {
    "name": "has-symbols",
    "version": "1.0.0"
  },
  {
    "name": "has-unicode",
    "version": "2.0.1"
  },
  {
    "name": "has-value",
    "version": "0.3.1"
  },
  {
    "name": "has-value",
    "version": "1.0.0"
  },
  {
    "name": "has-values",
    "version": "0.1.4"
  },
  {
    "name": "has-values",
    "version": "1.0.0"
  },
  {
    "name": "hash-base",
    "version": "2.0.2"
  },
  {
    "name": "hash-base",
    "version": "3.0.4"
  },
  {
    "name": "hash-sum",
    "version": "1.0.2"
  },
  {
    "name": "hash.js",
    "version": "1.1.3"
  },
  {
    "name": "hawk",
    "version": "3.1.3"
  },
  {
    "name": "hawk",
    "version": "6.0.2"
  },
  {
    "name": "he",
    "version": "1.1.1"
  },
  {
    "name": "highlight.js",
    "version": "9.12.0"
  },
  {
    "name": "hmac-drbg",
    "version": "1.0.1"
  },
  {
    "name": "hoek",
    "version": "2.16.3"
  },
  {
    "name": "hoek",
    "version": "4.2.0"
  },
  {
    "name": "home-or-tmp",
    "version": "2.0.0"
  },
  {
    "name": "hosted-git-info",
    "version": "2.5.0"
  },
  {
    "name": "html-comment-regex",
    "version": "1.1.1"
  },
  {
    "name": "html-encoding-sniffer",
    "version": "1.0.2"
  },
  {
    "name": "html-entities",
    "version": "1.2.1"
  },
  {
    "name": "html-minifier",
    "version": "3.5.8"
  },
  {
    "name": "html-tags",
    "version": "2.0.0"
  },
  {
    "name": "html-webpack-plugin",
    "version": "2.30.1"
  },
  {
    "name": "htmlparser2",
    "version": "3.3.0"
  },
  {
    "name": "htmlparser2",
    "version": "3.9.2"
  },
  {
    "name": "http-errors",
    "version": "1.6.2"
  },
  {
    "name": "http-signature",
    "version": "1.1.1"
  },
  {
    "name": "http-signature",
    "version": "1.2.0"
  },
  {
    "name": "https-browserify",
    "version": "1.0.0"
  },
  {
    "name": "husky",
    "version": "0.14.3"
  },
  {
    "name": "iconv-lite",
    "version": "0.4.19"
  },
  {
    "name": "icss-replace-symbols",
    "version": "1.1.0"
  },
  {
    "name": "icss-utils",
    "version": "2.1.0"
  },
  {
    "name": "ieee754",
    "version": "1.1.8"
  },
  {
    "name": "iferr",
    "version": "0.1.5"
  },
  {
    "name": "ignore",
    "version": "3.3.7"
  },
  {
    "name": "imurmurhash",
    "version": "0.1.4"
  },
  {
    "name": "indexes-of",
    "version": "1.0.1"
  },
  {
    "name": "indexof",
    "version": "0.0.1"
  },
  {
    "name": "inflight",
    "version": "1.0.6"
  },
  {
    "name": "inherits",
    "version": "2.0.1"
  },
  {
    "name": "inherits",
    "version": "2.0.3"
  },
  {
    "name": "ini",
    "version": "1.3.4"
  },
  {
    "name": "inquirer",
    "version": "3.0.6"
  },
  {
    "name": "interpret",
    "version": "1.1.0"
  },
  {
    "name": "invariant",
    "version": "2.2.2"
  },
  {
    "name": "invert-kv",
    "version": "1.0.0"
  },
  {
    "name": "ip-regex",
    "version": "1.0.3"
  },
  {
    "name": "ipaddr.js",
    "version": "1.5.2"
  },
  {
    "name": "is-absolute-url",
    "version": "2.1.0"
  },
  {
    "name": "is-accessor-descriptor",
    "version": "0.1.6"
  },
  {
    "name": "is-accessor-descriptor",
    "version": "1.0.0"
  },
  {
    "name": "is-arrayish",
    "version": "0.2.1"
  },
  {
    "name": "is-arrayish",
    "version": "0.3.1"
  },
  {
    "name": "is-binary-path",
    "version": "1.0.1"
  },
  {
    "name": "is-buffer",
    "version": "1.1.6"
  },
  {
    "name": "is-builtin-module",
    "version": "1.0.0"
  },
  {
    "name": "is-ci",
    "version": "1.1.0"
  },
  {
    "name": "is-data-descriptor",
    "version": "0.1.4"
  },
  {
    "name": "is-data-descriptor",
    "version": "1.0.0"
  },
  {
    "name": "is-descriptor",
    "version": "0.1.6"
  },
  {
    "name": "is-descriptor",
    "version": "1.0.2"
  },
  {
    "name": "is-directory",
    "version": "0.3.1"
  },
  {
    "name": "is-dotfile",
    "version": "1.0.3"
  },
  {
    "name": "is-equal-shallow",
    "version": "0.1.3"
  },
  {
    "name": "is-extendable",
    "version": "0.1.1"
  },
  {
    "name": "is-extendable",
    "version": "1.0.1"
  },
  {
    "name": "is-extglob",
    "version": "1.0.0"
  },
  {
    "name": "is-extglob",
    "version": "2.1.1"
  },
  {
    "name": "is-finite",
    "version": "1.0.2"
  },
  {
    "name": "is-fullwidth-code-point",
    "version": "1.0.0"
  },
  {
    "name": "is-fullwidth-code-point",
    "version": "2.0.0"
  },
  {
    "name": "is-function",
    "version": "1.0.1"
  },
  {
    "name": "is-glob",
    "version": "2.0.1"
  },
  {
    "name": "is-glob",
    "version": "3.1.0"
  },
  {
    "name": "is-glob",
    "version": "4.0.0"
  },
  {
    "name": "is-https",
    "version": "1.0.0"
  },
  {
    "name": "is-number",
    "version": "2.1.0"
  },
  {
    "name": "is-number",
    "version": "3.0.0"
  },
  {
    "name": "is-odd",
    "version": "1.0.0"
  },
  {
    "name": "is-path-cwd",
    "version": "1.0.0"
  },
  {
    "name": "is-path-in-cwd",
    "version": "1.0.0"
  },
  {
    "name": "is-path-inside",
    "version": "1.0.1"
  },
  {
    "name": "is-plain-obj",
    "version": "1.1.0"
  },
  {
    "name": "is-plain-object",
    "version": "2.0.4"
  },
  {
    "name": "is-posix-bracket",
    "version": "0.1.1"
  },
  {
    "name": "is-primitive",
    "version": "2.0.0"
  },
  {
    "name": "is-promise",
    "version": "2.1.0"
  },
  {
    "name": "is-resolvable",
    "version": "1.1.0"
  },
  {
    "name": "is-stream",
    "version": "1.1.0"
  },
  {
    "name": "is-svg",
    "version": "2.1.0"
  },
  {
    "name": "is-typedarray",
    "version": "1.0.0"
  },
  {
    "name": "is-utf8",
    "version": "0.2.1"
  },
  {
    "name": "isarray",
    "version": "0.0.1"
  },
  {
    "name": "isarray",
    "version": "1.0.0"
  },
  {
    "name": "isexe",
    "version": "2.0.0"
  },
  {
    "name": "isnumeric",
    "version": "0.2.0"
  },
  {
    "name": "isobject",
    "version": "2.1.0"
  },
  {
    "name": "isobject",
    "version": "3.0.1"
  },
  {
    "name": "isstream",
    "version": "0.1.2"
  },
  {
    "name": "istanbul-lib-coverage",
    "version": "1.1.1"
  },
  {
    "name": "istanbul-lib-hook",
    "version": "1.1.0"
  },
  {
    "name": "istanbul-lib-instrument",
    "version": "1.9.1"
  },
  {
    "name": "istanbul-lib-report",
    "version": "1.1.2"
  },
  {
    "name": "istanbul-lib-source-maps",
    "version": "1.2.2"
  },
  {
    "name": "istanbul-reports",
    "version": "1.1.3"
  },
  {
    "name": "jimp",
    "version": "0.2.28"
  },
  {
    "name": "jodid25519",
    "version": "1.0.2"
  },
  {
    "name": "jpeg-js",
    "version": "0.2.0"
  },
  {
    "name": "js-base64",
    "version": "2.4.1"
  },
  {
    "name": "js-tokens",
    "version": "3.0.2"
  },
  {
    "name": "js-yaml",
    "version": "3.10.0"
  },
  {
    "name": "js-yaml",
    "version": "3.7.0"
  },
  {
    "name": "jsbn",
    "version": "0.1.1"
  },
  {
    "name": "jsdom",
    "version": "11.5.1"
  },
  {
    "name": "jsdom",
    "version": "11.6.0"
  },
  {
    "name": "jsesc",
    "version": "0.5.0"
  },
  {
    "name": "jsesc",
    "version": "1.3.0"
  },
  {
    "name": "json-loader",
    "version": "0.5.7"
  },
  {
    "name": "json-schema",
    "version": "0.2.3"
  },
  {
    "name": "json-schema-traverse",
    "version": "0.3.1"
  },
  {
    "name": "json-stable-stringify",
    "version": "1.0.1"
  },
  {
    "name": "json-stable-stringify-without-jsonify",
    "version": "1.0.1"
  },
  {
    "name": "json-stringify-safe",
    "version": "5.0.1"
  },
  {
    "name": "json3",
    "version": "3.3.2"
  },
  {
    "name": "json5",
    "version": "0.5.1"
  },
  {
    "name": "jsonfile",
    "version": "2.4.0"
  },
  {
    "name": "jsonfile",
    "version": "3.0.1"
  },
  {
    "name": "jsonfile",
    "version": "4.0.0"
  },
  {
    "name": "jsonify",
    "version": "0.0.0"
  },
  {
    "name": "jsprim",
    "version": "1.4.0"
  },
  {
    "name": "jsprim",
    "version": "1.4.1"
  },
  {
    "name": "kind-of",
    "version": "3.2.2"
  },
  {
    "name": "kind-of",
    "version": "4.0.0"
  },
  {
    "name": "kind-of",
    "version": "5.1.0"
  },
  {
    "name": "kind-of",
    "version": "6.0.2"
  },
  {
    "name": "klaw",
    "version": "1.3.1"
  },
  {
    "name": "launch-editor",
    "version": "2.0.0"
  },
  {
    "name": "launch-editor-middleware",
    "version": "2.2.0"
  },
  {
    "name": "lazy-cache",
    "version": "1.0.4"
  },
  {
    "name": "lazy-cache",
    "version": "2.0.2"
  },
  {
    "name": "lcid",
    "version": "1.0.0"
  },
  {
    "name": "lcov-parse",
    "version": "0.0.10"
  },
  {
    "name": "left-pad",
    "version": "1.2.0"
  },
  {
    "name": "levn",
    "version": "0.3.0"
  },
  {
    "name": "linkify-it",
    "version": "2.0.3"
  },
  {
    "name": "load-bmfont",
    "version": "1.3.0"
  },
  {
    "name": "load-json-file",
    "version": "1.1.0"
  },
  {
    "name": "load-json-file",
    "version": "2.0.0"
  },
  {
    "name": "loader-fs-cache",
    "version": "1.0.1"
  },
  {
    "name": "loader-runner",
    "version": "2.3.0"
  },
  {
    "name": "loader-utils",
    "version": "0.2.17"
  },
  {
    "name": "loader-utils",
    "version": "1.1.0"
  },
  {
    "name": "locate-path",
    "version": "2.0.0"
  },
  {
    "name": "lodash",
    "version": "4.17.4"
  },
  {
    "name": "lodash._baseassign",
    "version": "3.2.0"
  },
  {
    "name": "lodash._basecopy",
    "version": "3.0.1"
  },
  {
    "name": "lodash._basecreate",
    "version": "3.0.3"
  },
  {
    "name": "lodash._getnative",
    "version": "3.9.1"
  },
  {
    "name": "lodash._isiterateecall",
    "version": "3.0.9"
  },
  {
    "name": "lodash._reinterpolate",
    "version": "3.0.0"
  },
  {
    "name": "lodash.assign",
    "version": "4.2.0"
  },
  {
    "name": "lodash.camelcase",
    "version": "4.3.0"
  },
  {
    "name": "lodash.clonedeep",
    "version": "4.5.0"
  },
  {
    "name": "lodash.cond",
    "version": "4.5.2"
  },
  {
    "name": "lodash.create",
    "version": "3.1.1"
  },
  {
    "name": "lodash.endswith",
    "version": "4.2.1"
  },
  {
    "name": "lodash.isarguments",
    "version": "3.1.0"
  },
  {
    "name": "lodash.isarray",
    "version": "3.0.4"
  },
  {
    "name": "lodash.isfunction",
    "version": "3.0.8"
  },
  {
    "name": "lodash.isplainobject",
    "version": "4.0.6"
  },
  {
    "name": "lodash.isstring",
    "version": "4.0.1"
  },
  {
    "name": "lodash.keys",
    "version": "3.1.2"
  },
  {
    "name": "lodash.memoize",
    "version": "4.1.2"
  },
  {
    "name": "lodash.merge",
    "version": "4.6.0"
  },
  {
    "name": "lodash.sortby",
    "version": "4.7.0"
  },
  {
    "name": "lodash.startswith",
    "version": "4.2.1"
  },
  {
    "name": "lodash.template",
    "version": "4.4.0"
  },
  {
    "name": "lodash.templatesettings",
    "version": "4.1.0"
  },
  {
    "name": "lodash.uniq",
    "version": "4.5.0"
  },
  {
    "name": "log-driver",
    "version": "1.2.5"
  },
  {
    "name": "log-symbols",
    "version": "2.2.0"
  },
  {
    "name": "loglevelnext",
    "version": "1.0.3"
  },
  {
    "name": "longest",
    "version": "1.0.1"
  },
  {
    "name": "loose-envify",
    "version": "1.3.1"
  },
  {
    "name": "loud-rejection",
    "version": "1.6.0"
  },
  {
    "name": "lower-case",
    "version": "1.1.4"
  },
  {
    "name": "lru-cache",
    "version": "4.1.1"
  },
  {
    "name": "macaddress",
    "version": "0.2.8"
  },
  {
    "name": "make-dir",
    "version": "1.1.0"
  },
  {
    "name": "map-cache",
    "version": "0.2.2"
  },
  {
    "name": "map-visit",
    "version": "1.0.0"
  },
  {
    "name": "markdown-it",
    "version": "8.4.0"
  },
  {
    "name": "markdown-it-anchor",
    "version": "4.0.0"
  },
  {
    "name": "math-expression-evaluator",
    "version": "1.2.17"
  },
  {
    "name": "md5-hex",
    "version": "1.3.0"
  },
  {
    "name": "md5-o-matic",
    "version": "0.1.1"
  },
  {
    "name": "md5.js",
    "version": "1.3.4"
  },
  {
    "name": "mdurl",
    "version": "1.0.1"
  },
  {
    "name": "media-typer",
    "version": "0.3.0"
  },
  {
    "name": "mem",
    "version": "1.1.0"
  },
  {
    "name": "memory-fs",
    "version": "0.4.1"
  },
  {
    "name": "merge-descriptors",
    "version": "1.0.1"
  },
  {
    "name": "merge-source-map",
    "version": "1.0.4"
  },
  {
    "name": "methods",
    "version": "1.1.2"
  },
  {
    "name": "micromatch",
    "version": "2.3.11"
  },
  {
    "name": "micromatch",
    "version": "3.1.5"
  },
  {
    "name": "miller-rabin",
    "version": "4.0.1"
  },
  {
    "name": "mime",
    "version": "1.4.1"
  },
  {
    "name": "mime",
    "version": "1.6.0"
  },
  {
    "name": "mime",
    "version": "2.2.0"
  },
  {
    "name": "mime-db",
    "version": "1.27.0"
  },
  {
    "name": "mime-db",
    "version": "1.30.0"
  },
  {
    "name": "mime-types",
    "version": "2.1.15"
  },
  {
    "name": "mime-types",
    "version": "2.1.17"
  },
  {
    "name": "mimic-fn",
    "version": "1.1.0"
  },
  {
    "name": "min-document",
    "version": "2.19.0"
  },
  {
    "name": "minimalistic-assert",
    "version": "1.0.0"
  },
  {
    "name": "minimalistic-crypto-utils",
    "version": "1.0.1"
  },
  {
    "name": "minimatch",
    "version": "3.0.4"
  },
  {
    "name": "minimist",
    "version": "0.0.8"
  },
  {
    "name": "minimist",
    "version": "1.2.0"
  },
  {
    "name": "mississippi",
    "version": "1.3.0"
  },
  {
    "name": "mixin-deep",
    "version": "1.3.0"
  },
  {
    "name": "mkdirp",
    "version": "0.5.1"
  },
  {
    "name": "mocha",
    "version": "3.5.3"
  },
  {
    "name": "mocha-webpack",
    "version": "0.7.0"
  },
  {
    "name": "moment",
    "version": "2.20.1"
  },
  {
    "name": "move-concurrently",
    "version": "1.0.1"
  },
  {
    "name": "ms",
    "version": "2.0.0"
  },
  {
    "name": "mustache",
    "version": "2.3.0"
  },
  {
    "name": "mute-stream",
    "version": "0.0.7"
  },
  {
    "name": "nan",
    "version": "2.8.0"
  },
  {
    "name": "nanomatch",
    "version": "1.2.7"
  },
  {
    "name": "natural-compare",
    "version": "1.4.0"
  },
  {
    "name": "ncname",
    "version": "1.0.0"
  },
  {
    "name": "negotiator",
    "version": "0.6.1"
  },
  {
    "name": "no-case",
    "version": "2.3.2"
  },
  {
    "name": "node-fetch",
    "version": "1.6.3"
  },
  {
    "name": "node-libs-browser",
    "version": "2.1.0"
  },
  {
    "name": "node-pre-gyp",
    "version": "0.6.39"
  },
  {
    "name": "nopt",
    "version": "4.0.1"
  },
  {
    "name": "normalize-package-data",
    "version": "2.4.0"
  },
  {
    "name": "normalize-path",
    "version": "1.0.0"
  },
  {
    "name": "normalize-path",
    "version": "2.1.1"
  },
  {
    "name": "normalize-range",
    "version": "0.1.2"
  },
  {
    "name": "normalize-url",
    "version": "1.9.1"
  },
  {
    "name": "normalize.css",
    "version": "7.0.0"
  },
  {
    "name": "npm-run-path",
    "version": "2.0.2"
  },
  {
    "name": "npmlog",
    "version": "4.1.0"
  },
  {
    "name": "nth-check",
    "version": "1.0.1"
  },
  {
    "name": "num2fraction",
    "version": "1.2.2"
  },
  {
    "name": "number-is-nan",
    "version": "1.0.1"
  },
  {
    "name": "nuxt",
    "version": "1.1.1"
  },
  {
    "name": "nuxtent",
    "version": "1.2.2"
  },
  {
    "name": "nwmatcher",
    "version": "1.4.3"
  },
  {
    "name": "nyc",
    "version": "11.4.1"
  },
  {
    "name": "oauth-sign",
    "version": "0.8.2"
  },
  {
    "name": "object-assign",
    "version": "4.1.1"
  },
  {
    "name": "object-copy",
    "version": "0.1.0"
  },
  {
    "name": "object-hash",
    "version": "1.2.0"
  },
  {
    "name": "object-keys",
    "version": "1.0.11"
  },
  {
    "name": "object-visit",
    "version": "1.0.1"
  },
  {
    "name": "object.assign",
    "version": "4.1.0"
  },
  {
    "name": "object.omit",
    "version": "2.0.1"
  },
  {
    "name": "object.pick",
    "version": "1.3.0"
  },
  {
    "name": "on-finished",
    "version": "2.3.0"
  },
  {
    "name": "on-headers",
    "version": "1.0.1"
  },
  {
    "name": "once",
    "version": "1.4.0"
  },
  {
    "name": "onecolor",
    "version": "3.0.5"
  },
  {
    "name": "onetime",
    "version": "2.0.1"
  },
  {
    "name": "opencollective",
    "version": "1.0.3"
  },
  {
    "name": "opener",
    "version": "1.4.3"
  },
  {
    "name": "opn",
    "version": "4.0.2"
  },
  {
    "name": "optimist",
    "version": "0.6.1"
  },
  {
    "name": "optionator",
    "version": "0.8.2"
  },
  {
    "name": "os-browserify",
    "version": "0.3.0"
  },
  {
    "name": "os-homedir",
    "version": "1.0.2"
  },
  {
    "name": "os-locale",
    "version": "1.4.0"
  },
  {
    "name": "os-locale",
    "version": "2.1.0"
  },
  {
    "name": "os-tmpdir",
    "version": "1.0.2"
  },
  {
    "name": "osenv",
    "version": "0.1.4"
  },
  {
    "name": "p-finally",
    "version": "1.0.0"
  },
  {
    "name": "p-limit",
    "version": "1.1.0"
  },
  {
    "name": "p-limit",
    "version": "1.2.0"
  },
  {
    "name": "p-locate",
    "version": "2.0.0"
  },
  {
    "name": "p-try",
    "version": "1.0.0"
  },
  {
    "name": "pako",
    "version": "1.0.6"
  },
  {
    "name": "parallel-transform",
    "version": "1.1.0"
  },
  {
    "name": "param-case",
    "version": "2.1.1"
  },
  {
    "name": "parse-asn1",
    "version": "5.1.0"
  },
  {
    "name": "parse-bmfont-ascii",
    "version": "1.0.6"
  },
  {
    "name": "parse-bmfont-binary",
    "version": "1.0.6"
  },
  {
    "name": "parse-bmfont-xml",
    "version": "1.1.3"
  },
  {
    "name": "parse-glob",
    "version": "3.0.4"
  },
  {
    "name": "parse-headers",
    "version": "2.0.1"
  },
  {
    "name": "parse-json",
    "version": "2.2.0"
  },
  {
    "name": "parse5",
    "version": "3.0.3"
  },
  {
    "name": "parse5",
    "version": "4.0.0"
  },
  {
    "name": "parseurl",
    "version": "1.3.2"
  },
  {
    "name": "pascalcase",
    "version": "0.1.1"
  },
  {
    "name": "path-browserify",
    "version": "0.0.0"
  },
  {
    "name": "path-dirname",
    "version": "1.0.2"
  },
  {
    "name": "path-exists",
    "version": "2.1.0"
  },
  {
    "name": "path-exists",
    "version": "3.0.0"
  },
  {
    "name": "path-is-absolute",
    "version": "1.0.1"
  },
  {
    "name": "path-is-inside",
    "version": "1.0.2"
  },
  {
    "name": "path-key",
    "version": "2.0.1"
  },
  {
    "name": "path-parse",
    "version": "1.0.5"
  },
  {
    "name": "path-to-regexp",
    "version": "0.1.7"
  },
  {
    "name": "path-to-regexp",
    "version": "2.1.0"
  },
  {
    "name": "path-type",
    "version": "1.1.0"
  },
  {
    "name": "path-type",
    "version": "2.0.0"
  },
  {
    "name": "pathval",
    "version": "1.1.0"
  },
  {
    "name": "pbkdf2",
    "version": "3.0.14"
  },
  {
    "name": "performance-now",
    "version": "0.2.0"
  },
  {
    "name": "performance-now",
    "version": "2.1.0"
  },
  {
    "name": "pify",
    "version": "2.3.0"
  },
  {
    "name": "pify",
    "version": "3.0.0"
  },
  {
    "name": "pinkie",
    "version": "2.0.4"
  },
  {
    "name": "pinkie-promise",
    "version": "2.0.1"
  },
  {
    "name": "pixelmatch",
    "version": "4.0.2"
  },
  {
    "name": "pixrem",
    "version": "4.0.1"
  },
  {
    "name": "pkg-dir",
    "version": "1.0.0"
  },
  {
    "name": "pkg-dir",
    "version": "2.0.0"
  },
  {
    "name": "pleeease-filters",
    "version": "4.0.0"
  },
  {
    "name": "pluralize",
    "version": "7.0.0"
  },
  {
    "name": "pn",
    "version": "1.1.0"
  },
  {
    "name": "pngjs",
    "version": "3.3.1"
  },
  {
    "name": "popper.js",
    "version": "1.12.9"
  },
  {
    "name": "posix-character-classes",
    "version": "0.1.1"
  },
  {
    "name": "postcss",
    "version": "5.2.18"
  },
  {
    "name": "postcss",
    "version": "6.0.16"
  },
  {
    "name": "postcss-apply",
    "version": "0.8.0"
  },
  {
    "name": "postcss-attribute-case-insensitive",
    "version": "2.0.0"
  },
  {
    "name": "postcss-calc",
    "version": "5.3.1"
  },
  {
    "name": "postcss-calc",
    "version": "6.0.1"
  },
  {
    "name": "postcss-color-function",
    "version": "4.0.1"
  },
  {
    "name": "postcss-color-gray",
    "version": "4.1.0"
  },
  {
    "name": "postcss-color-hex-alpha",
    "version": "3.0.0"
  },
  {
    "name": "postcss-color-hsl",
    "version": "2.0.0"
  },
  {
    "name": "postcss-color-hwb",
    "version": "3.0.0"
  },
  {
    "name": "postcss-color-rebeccapurple",
    "version": "3.0.0"
  },
  {
    "name": "postcss-color-rgb",
    "version": "2.0.0"
  },
  {
    "name": "postcss-color-rgba-fallback",
    "version": "3.0.0"
  },
  {
    "name": "postcss-colormin",
    "version": "2.2.2"
  },
  {
    "name": "postcss-convert-values",
    "version": "2.6.1"
  },
  {
    "name": "postcss-cssnext",
    "version": "3.1.0"
  },
  {
    "name": "postcss-custom-media",
    "version": "6.0.0"
  },
  {
    "name": "postcss-custom-properties",
    "version": "6.2.0"
  },
  {
    "name": "postcss-custom-selectors",
    "version": "4.0.1"
  },
  {
    "name": "postcss-discard-comments",
    "version": "2.0.4"
  },
  {
    "name": "postcss-discard-duplicates",
    "version": "2.1.0"
  },
  {
    "name": "postcss-discard-empty",
    "version": "2.1.0"
  },
  {
    "name": "postcss-discard-overridden",
    "version": "0.1.1"
  },
  {
    "name": "postcss-discard-unused",
    "version": "2.2.3"
  },
  {
    "name": "postcss-filter-plugins",
    "version": "2.0.2"
  },
  {
    "name": "postcss-font-family-system-ui",
    "version": "3.0.0"
  },
  {
    "name": "postcss-font-variant",
    "version": "3.0.0"
  },
  {
    "name": "postcss-image-set-polyfill",
    "version": "0.3.5"
  },
  {
    "name": "postcss-import",
    "version": "11.0.0"
  },
  {
    "name": "postcss-initial",
    "version": "2.0.0"
  },
  {
    "name": "postcss-load-config",
    "version": "1.2.0"
  },
  {
    "name": "postcss-load-options",
    "version": "1.2.0"
  },
  {
    "name": "postcss-load-plugins",
    "version": "2.3.0"
  },
  {
    "name": "postcss-loader",
    "version": "2.0.10"
  },
  {
    "name": "postcss-media-minmax",
    "version": "3.0.0"
  },
  {
    "name": "postcss-media-query-parser",
    "version": "0.2.3"
  },
  {
    "name": "postcss-merge-idents",
    "version": "2.1.7"
  },
  {
    "name": "postcss-merge-longhand",
    "version": "2.0.2"
  },
  {
    "name": "postcss-merge-rules",
    "version": "2.1.2"
  },
  {
    "name": "postcss-message-helpers",
    "version": "2.0.0"
  },
  {
    "name": "postcss-minify-font-values",
    "version": "1.0.5"
  },
  {
    "name": "postcss-minify-gradients",
    "version": "1.0.5"
  },
  {
    "name": "postcss-minify-params",
    "version": "1.2.2"
  },
  {
    "name": "postcss-minify-selectors",
    "version": "2.1.1"
  },
  {
    "name": "postcss-modules-extract-imports",
    "version": "1.2.0"
  },
  {
    "name": "postcss-modules-local-by-default",
    "version": "1.2.0"
  },
  {
    "name": "postcss-modules-scope",
    "version": "1.1.0"
  },
  {
    "name": "postcss-modules-values",
    "version": "1.3.0"
  },
  {
    "name": "postcss-nesting",
    "version": "4.2.1"
  },
  {
    "name": "postcss-normalize-charset",
    "version": "1.1.1"
  },
  {
    "name": "postcss-normalize-url",
    "version": "3.0.8"
  },
  {
    "name": "postcss-ordered-values",
    "version": "2.2.3"
  },
  {
    "name": "postcss-pseudo-class-any-link",
    "version": "4.0.0"
  },
  {
    "name": "postcss-pseudoelements",
    "version": "5.0.0"
  },
  {
    "name": "postcss-reduce-idents",
    "version": "2.4.0"
  },
  {
    "name": "postcss-reduce-initial",
    "version": "1.0.1"
  },
  {
    "name": "postcss-reduce-transforms",
    "version": "1.0.4"
  },
  {
    "name": "postcss-replace-overflow-wrap",
    "version": "2.0.0"
  },
  {
    "name": "postcss-selector-matches",
    "version": "3.0.1"
  },
  {
    "name": "postcss-selector-not",
    "version": "3.0.1"
  },
  {
    "name": "postcss-selector-parser",
    "version": "2.2.3"
  },
  {
    "name": "postcss-svgo",
    "version": "2.1.6"
  },
  {
    "name": "postcss-unique-selectors",
    "version": "2.0.2"
  },
  {
    "name": "postcss-url",
    "version": "7.3.0"
  },
  {
    "name": "postcss-value-parser",
    "version": "3.3.0"
  },
  {
    "name": "postcss-zindex",
    "version": "2.2.0"
  },
  {
    "name": "prelude-ls",
    "version": "1.1.2"
  },
  {
    "name": "prepend-http",
    "version": "1.0.4"
  },
  {
    "name": "preserve",
    "version": "0.2.0"
  },
  {
    "name": "prettier",
    "version": "1.10.2"
  },
  {
    "name": "pretty-error",
    "version": "2.1.1"
  },
  {
    "name": "private",
    "version": "0.1.8"
  },
  {
    "name": "process",
    "version": "0.11.10"
  },
  {
    "name": "process",
    "version": "0.5.2"
  },
  {
    "name": "process-nextick-args",
    "version": "1.0.7"
  },
  {
    "name": "progress",
    "version": "1.1.8"
  },
  {
    "name": "progress",
    "version": "2.0.0"
  },
  {
    "name": "progress-bar-webpack-plugin",
    "version": "1.10.0"
  },
  {
    "name": "promise-inflight",
    "version": "1.0.1"
  },
  {
    "name": "proxy-addr",
    "version": "2.0.2"
  },
  {
    "name": "prr",
    "version": "1.0.1"
  },
  {
    "name": "pseudomap",
    "version": "1.0.2"
  },
  {
    "name": "public-encrypt",
    "version": "4.0.0"
  },
  {
    "name": "pump",
    "version": "1.0.3"
  },
  {
    "name": "pump",
    "version": "2.0.1"
  },
  {
    "name": "pumpify",
    "version": "1.4.0"
  },
  {
    "name": "punycode",
    "version": "1.3.2"
  },
  {
    "name": "punycode",
    "version": "1.4.1"
  },
  {
    "name": "punycode",
    "version": "2.1.0"
  },
  {
    "name": "q",
    "version": "1.5.1"
  },
  {
    "name": "qs",
    "version": "6.4.0"
  },
  {
    "name": "qs",
    "version": "6.5.1"
  },
  {
    "name": "query-string",
    "version": "4.3.4"
  },
  {
    "name": "querystring",
    "version": "0.2.0"
  },
  {
    "name": "querystring-es3",
    "version": "0.2.1"
  },
  {
    "name": "randomatic",
    "version": "1.1.7"
  },
  {
    "name": "randombytes",
    "version": "2.0.6"
  },
  {
    "name": "randomfill",
    "version": "1.0.3"
  },
  {
    "name": "range-parser",
    "version": "1.2.0"
  },
  {
    "name": "raw-body",
    "version": "2.3.2"
  },
  {
    "name": "raw-loader",
    "version": "0.5.1"
  },
  {
    "name": "rc",
    "version": "1.2.1"
  },
  {
    "name": "read-cache",
    "version": "1.0.0"
  },
  {
    "name": "read-chunk",
    "version": "1.0.1"
  },
  {
    "name": "read-pkg",
    "version": "1.1.0"
  },
  {
    "name": "read-pkg",
    "version": "2.0.0"
  },
  {
    "name": "read-pkg-up",
    "version": "1.0.1"
  },
  {
    "name": "read-pkg-up",
    "version": "2.0.0"
  },
  {
    "name": "readable-stream",
    "version": "1.0.34"
  },
  {
    "name": "readable-stream",
    "version": "2.2.9"
  },
  {
    "name": "readable-stream",
    "version": "2.3.3"
  },
  {
    "name": "readdirp",
    "version": "2.1.0"
  },
  {
    "name": "reduce-css-calc",
    "version": "1.3.0"
  },
  {
    "name": "reduce-css-calc",
    "version": "2.1.4"
  },
  {
    "name": "reduce-function-call",
    "version": "1.0.2"
  },
  {
    "name": "regenerate",
    "version": "1.3.3"
  },
  {
    "name": "regenerator-runtime",
    "version": "0.10.5"
  },
  {
    "name": "regenerator-runtime",
    "version": "0.11.1"
  },
  {
    "name": "regenerator-transform",
    "version": "0.10.1"
  },
  {
    "name": "regex-cache",
    "version": "0.4.4"
  },
  {
    "name": "regex-not",
    "version": "1.0.0"
  },
  {
    "name": "regexpu-core",
    "version": "1.0.0"
  },
  {
    "name": "regexpu-core",
    "version": "2.0.0"
  },
  {
    "name": "regjsgen",
    "version": "0.2.0"
  },
  {
    "name": "regjsparser",
    "version": "0.1.5"
  },
  {
    "name": "relateurl",
    "version": "0.2.7"
  },
  {
    "name": "remove-trailing-separator",
    "version": "1.1.0"
  },
  {
    "name": "renderkid",
    "version": "2.0.1"
  },
  {
    "name": "repeat-element",
    "version": "1.1.2"
  },
  {
    "name": "repeat-string",
    "version": "1.6.1"
  },
  {
    "name": "repeating",
    "version": "2.0.1"
  },
  {
    "name": "request",
    "version": "2.81.0"
  },
  {
    "name": "request",
    "version": "2.83.0"
  },
  {
    "name": "request-promise-core",
    "version": "1.1.1"
  },
  {
    "name": "request-promise-native",
    "version": "1.0.5"
  },
  {
    "name": "require-directory",
    "version": "2.1.1"
  },
  {
    "name": "require-from-string",
    "version": "1.2.1"
  },
  {
    "name": "require-main-filename",
    "version": "1.0.1"
  },
  {
    "name": "require-uncached",
    "version": "1.0.3"
  },
  {
    "name": "resolve",
    "version": "1.5.0"
  },
  {
    "name": "resolve-from",
    "version": "1.0.1"
  },
  {
    "name": "resolve-from",
    "version": "2.0.0"
  },
  {
    "name": "resolve-url",
    "version": "0.2.1"
  },
  {
    "name": "restore-cursor",
    "version": "2.0.0"
  },
  {
    "name": "rgb",
    "version": "0.1.0"
  },
  {
    "name": "rgb-hex",
    "version": "2.1.0"
  },
  {
    "name": "right-align",
    "version": "0.1.3"
  },
  {
    "name": "rimraf",
    "version": "2.6.1"
  },
  {
    "name": "rimraf",
    "version": "2.6.2"
  },
  {
    "name": "ripemd160",
    "version": "2.0.1"
  },
  {
    "name": "run-async",
    "version": "2.3.0"
  },
  {
    "name": "run-queue",
    "version": "1.0.3"
  },
  {
    "name": "rupture",
    "version": "0.6.2"
  },
  {
    "name": "rx",
    "version": "4.1.0"
  },
  {
    "name": "safe-buffer",
    "version": "5.0.1"
  },
  {
    "name": "safe-buffer",
    "version": "5.1.1"
  },
  {
    "name": "sax",
    "version": "0.5.8"
  },
  {
    "name": "sax",
    "version": "1.2.4"
  },
  {
    "name": "schema-utils",
    "version": "0.3.0"
  },
  {
    "name": "schema-utils",
    "version": "0.4.3"
  },
  {
    "name": "semver",
    "version": "5.3.0"
  },
  {
    "name": "semver",
    "version": "5.4.1"
  },
  {
    "name": "semver",
    "version": "5.5.0"
  },
  {
    "name": "send",
    "version": "0.16.1"
  },
  {
    "name": "serialize-javascript",
    "version": "1.4.0"
  },
  {
    "name": "serve-static",
    "version": "1.13.1"
  },
  {
    "name": "server-destroy",
    "version": "1.0.1"
  },
  {
    "name": "set-blocking",
    "version": "2.0.0"
  },
  {
    "name": "set-getter",
    "version": "0.1.0"
  },
  {
    "name": "set-immediate-shim",
    "version": "1.0.1"
  },
  {
    "name": "set-value",
    "version": "0.4.3"
  },
  {
    "name": "set-value",
    "version": "2.0.0"
  },
  {
    "name": "setimmediate",
    "version": "1.0.5"
  },
  {
    "name": "setprototypeof",
    "version": "1.0.3"
  },
  {
    "name": "setprototypeof",
    "version": "1.1.0"
  },
  {
    "name": "sha.js",
    "version": "2.4.10"
  },
  {
    "name": "shebang-command",
    "version": "1.2.0"
  },
  {
    "name": "shebang-regex",
    "version": "1.0.0"
  },
  {
    "name": "shell-quote",
    "version": "1.6.1"
  },
  {
    "name": "signal-exit",
    "version": "3.0.2"
  },
  {
    "name": "simple-swizzle",
    "version": "0.2.2"
  },
  {
    "name": "sitemap",
    "version": "1.13.0"
  },
  {
    "name": "slash",
    "version": "1.0.0"
  },
  {
    "name": "slice-ansi",
    "version": "1.0.0"
  },
  {
    "name": "slide",
    "version": "1.1.6"
  },
  {
    "name": "snapdragon",
    "version": "0.8.1"
  },
  {
    "name": "snapdragon-node",
    "version": "2.1.1"
  },
  {
    "name": "snapdragon-util",
    "version": "3.0.1"
  },
  {
    "name": "sntp",
    "version": "1.0.9"
  },
  {
    "name": "sntp",
    "version": "2.1.0"
  },
  {
    "name": "sort-keys",
    "version": "1.1.2"
  },
  {
    "name": "source-list-map",
    "version": "0.1.8"
  },
  {
    "name": "source-list-map",
    "version": "2.0.0"
  },
  {
    "name": "source-map",
    "version": "0.1.43"
  },
  {
    "name": "source-map",
    "version": "0.4.4"
  },
  {
    "name": "source-map",
    "version": "0.5.6"
  },
  {
    "name": "source-map",
    "version": "0.5.7"
  },
  {
    "name": "source-map",
    "version": "0.6.1"
  },
  {
    "name": "source-map-resolve",
    "version": "0.5.1"
  },
  {
    "name": "source-map-support",
    "version": "0.4.18"
  },
  {
    "name": "source-map-url",
    "version": "0.4.0"
  },
  {
    "name": "spawn-wrap",
    "version": "1.4.2"
  },
  {
    "name": "spdx-correct",
    "version": "1.0.2"
  },
  {
    "name": "spdx-expression-parse",
    "version": "1.0.4"
  },
  {
    "name": "spdx-license-ids",
    "version": "1.2.2"
  },
  {
    "name": "split-string",
    "version": "3.1.0"
  },
  {
    "name": "sprintf-js",
    "version": "1.0.3"
  },
  {
    "name": "sshpk",
    "version": "1.13.0"
  },
  {
    "name": "sshpk",
    "version": "1.13.1"
  },
  {
    "name": "ssri",
    "version": "5.1.0"
  },
  {
    "name": "stack-trace",
    "version": "0.0.10"
  },
  {
    "name": "stackframe",
    "version": "1.0.4"
  },
  {
    "name": "static-extend",
    "version": "0.1.2"
  },
  {
    "name": "statuses",
    "version": "1.3.1"
  },
  {
    "name": "stealthy-require",
    "version": "1.1.1"
  },
  {
    "name": "stream-browserify",
    "version": "2.0.1"
  },
  {
    "name": "stream-each",
    "version": "1.2.2"
  },
  {
    "name": "stream-http",
    "version": "2.8.0"
  },
  {
    "name": "stream-shift",
    "version": "1.0.0"
  },
  {
    "name": "stream-to",
    "version": "0.2.2"
  },
  {
    "name": "stream-to-buffer",
    "version": "0.1.0"
  },
  {
    "name": "strict-uri-encode",
    "version": "1.1.0"
  },
  {
    "name": "string",
    "version": "3.3.3"
  },
  {
    "name": "string-length",
    "version": "1.0.1"
  },
  {
    "name": "string-width",
    "version": "1.0.2"
  },
  {
    "name": "string-width",
    "version": "2.1.1"
  },
  {
    "name": "string_decoder",
    "version": "0.10.31"
  },
  {
    "name": "string_decoder",
    "version": "1.0.1"
  },
  {
    "name": "string_decoder",
    "version": "1.0.3"
  },
  {
    "name": "stringstream",
    "version": "0.0.5"
  },
  {
    "name": "strip-ansi",
    "version": "3.0.1"
  },
  {
    "name": "strip-ansi",
    "version": "4.0.0"
  },
  {
    "name": "strip-bom",
    "version": "2.0.0"
  },
  {
    "name": "strip-bom",
    "version": "3.0.0"
  },
  {
    "name": "strip-eof",
    "version": "1.0.0"
  },
  {
    "name": "strip-indent",
    "version": "2.0.0"
  },
  {
    "name": "strip-json-comments",
    "version": "2.0.1"
  },
  {
    "name": "style-resources-loader",
    "version": "1.0.0"
  },
  {
    "name": "stylus",
    "version": "0.54.5"
  },
  {
    "name": "stylus-loader",
    "version": "3.0.1"
  },
  {
    "name": "supports-color",
    "version": "2.0.0"
  },
  {
    "name": "supports-color",
    "version": "3.1.2"
  },
  {
    "name": "supports-color",
    "version": "3.2.3"
  },
  {
    "name": "supports-color",
    "version": "4.5.0"
  },
  {
    "name": "supports-color",
    "version": "5.1.0"
  },
  {
    "name": "svg-tags",
    "version": "1.0.0"
  },
  {
    "name": "svgo",
    "version": "0.7.2"
  },
  {
    "name": "symbol-tree",
    "version": "3.2.2"
  },
  {
    "name": "table",
    "version": "4.0.2"
  },
  {
    "name": "tapable",
    "version": "0.2.8"
  },
  {
    "name": "tar",
    "version": "2.2.1"
  },
  {
    "name": "tar-pack",
    "version": "3.4.0"
  },
  {
    "name": "test-exclude",
    "version": "4.1.1"
  },
  {
    "name": "text-table",
    "version": "0.2.0"
  },
  {
    "name": "through",
    "version": "2.3.8"
  },
  {
    "name": "through2",
    "version": "2.0.3"
  },
  {
    "name": "timers-browserify",
    "version": "2.0.4"
  },
  {
    "name": "tinycolor2",
    "version": "1.4.1"
  },
  {
    "name": "tmp",
    "version": "0.0.33"
  },
  {
    "name": "to-arraybuffer",
    "version": "1.0.1"
  },
  {
    "name": "to-fast-properties",
    "version": "1.0.3"
  },
  {
    "name": "to-object-path",
    "version": "0.3.0"
  },
  {
    "name": "to-regex",
    "version": "3.0.1"
  },
  {
    "name": "to-regex-range",
    "version": "2.1.1"
  },
  {
    "name": "toposort",
    "version": "1.0.6"
  },
  {
    "name": "tough-cookie",
    "version": "2.3.2"
  },
  {
    "name": "tough-cookie",
    "version": "2.3.3"
  },
  {
    "name": "tr46",
    "version": "1.0.1"
  },
  {
    "name": "trim",
    "version": "0.0.1"
  },
  {
    "name": "trim-right",
    "version": "1.0.1"
  },
  {
    "name": "tty-browserify",
    "version": "0.0.0"
  },
  {
    "name": "tunnel-agent",
    "version": "0.6.0"
  },
  {
    "name": "tweetnacl",
    "version": "0.14.5"
  },
  {
    "name": "type-check",
    "version": "0.3.2"
  },
  {
    "name": "type-detect",
    "version": "4.0.7"
  },
  {
    "name": "type-is",
    "version": "1.6.15"
  },
  {
    "name": "typedarray",
    "version": "0.0.6"
  },
  {
    "name": "uc.micro",
    "version": "1.0.3"
  },
  {
    "name": "uglify-es",
    "version": "3.3.8"
  },
  {
    "name": "uglify-js",
    "version": "2.8.29"
  },
  {
    "name": "uglify-js",
    "version": "3.3.8"
  },
  {
    "name": "uglify-to-browserify",
    "version": "1.0.2"
  },
  {
    "name": "uglifyjs-webpack-plugin",
    "version": "0.4.6"
  },
  {
    "name": "uglifyjs-webpack-plugin",
    "version": "1.1.6"
  },
  {
    "name": "uid-number",
    "version": "0.0.6"
  },
  {
    "name": "ultron",
    "version": "1.1.1"
  },
  {
    "name": "underscore",
    "version": "1.8.3"
  },
  {
    "name": "union-value",
    "version": "1.0.0"
  },
  {
    "name": "uniq",
    "version": "1.0.1"
  },
  {
    "name": "uniqid",
    "version": "4.1.1"
  },
  {
    "name": "uniqs",
    "version": "2.0.0"
  },
  {
    "name": "unique-filename",
    "version": "1.1.0"
  },
  {
    "name": "unique-slug",
    "version": "2.0.0"
  },
  {
    "name": "units-css",
    "version": "0.4.0"
  },
  {
    "name": "universalify",
    "version": "0.1.1"
  },
  {
    "name": "unpipe",
    "version": "1.0.0"
  },
  {
    "name": "unset-value",
    "version": "1.0.0"
  },
  {
    "name": "upath",
    "version": "1.0.2"
  },
  {
    "name": "upper-case",
    "version": "1.1.3"
  },
  {
    "name": "uppercamelcase",
    "version": "3.0.0"
  },
  {
    "name": "urix",
    "version": "0.1.0"
  },
  {
    "name": "url",
    "version": "0.11.0"
  },
  {
    "name": "url-join",
    "version": "1.1.0"
  },
  {
    "name": "url-join",
    "version": "2.0.5"
  },
  {
    "name": "url-loader",
    "version": "0.6.2"
  },
  {
    "name": "url-regex",
    "version": "3.2.0"
  },
  {
    "name": "use",
    "version": "2.0.2"
  },
  {
    "name": "util",
    "version": "0.10.3"
  },
  {
    "name": "util-deprecate",
    "version": "1.0.2"
  },
  {
    "name": "utila",
    "version": "0.3.3"
  },
  {
    "name": "utila",
    "version": "0.4.0"
  },
  {
    "name": "utils-merge",
    "version": "1.0.1"
  },
  {
    "name": "uuid",
    "version": "3.0.1"
  },
  {
    "name": "uuid",
    "version": "3.2.1"
  },
  {
    "name": "v-tooltip",
    "version": "2.0.0-rc.27"
  },
  {
    "name": "validate-npm-package-license",
    "version": "3.0.1"
  },
  {
    "name": "vary",
    "version": "1.1.2"
  },
  {
    "name": "vendors",
    "version": "1.0.1"
  },
  {
    "name": "verror",
    "version": "1.10.0"
  },
  {
    "name": "verror",
    "version": "1.3.6"
  },
  {
    "name": "viewport-dimensions",
    "version": "0.2.0"
  },
  {
    "name": "vm-browserify",
    "version": "0.0.4"
  },
  {
    "name": "vue",
    "version": "2.5.13"
  },
  {
    "name": "vue-disqus",
    "version": "2.0.4"
  },
  {
    "name": "vue-hot-reload-api",
    "version": "2.2.4"
  },
  {
    "name": "vue-loader",
    "version": "13.7.0"
  },
  {
    "name": "vue-meta",
    "version": "1.4.2"
  },
  {
    "name": "vue-moment",
    "version": "2.2.0"
  },
  {
    "name": "vue-resize",
    "version": "0.4.3"
  },
  {
    "name": "vue-router",
    "version": "3.0.1"
  },
  {
    "name": "vue-scrollto",
    "version": "2.8.0"
  },
  {
    "name": "vue-server-renderer",
    "version": "2.5.13"
  },
  {
    "name": "vue-style-loader",
    "version": "3.0.3"
  },
  {
    "name": "vue-template-compiler",
    "version": "2.5.13"
  },
  {
    "name": "vue-template-es2015-compiler",
    "version": "1.6.0"
  },
  {
    "name": "vuex",
    "version": "3.0.1"
  },
  {
    "name": "w3c-hr-time",
    "version": "1.0.1"
  },
  {
    "name": "watchpack",
    "version": "1.4.0"
  },
  {
    "name": "webidl-conversions",
    "version": "4.0.2"
  },
  {
    "name": "webpack",
    "version": "3.10.0"
  },
  {
    "name": "webpack-bundle-analyzer",
    "version": "2.9.2"
  },
  {
    "name": "webpack-dev-middleware",
    "version": "2.0.4"
  },
  {
    "name": "webpack-hot-middleware",
    "version": "2.21.0"
  },
  {
    "name": "webpack-info-plugin",
    "version": "0.1.0"
  },
  {
    "name": "webpack-log",
    "version": "1.1.1"
  },
  {
    "name": "webpack-node-externals",
    "version": "1.6.0"
  },
  {
    "name": "webpack-sources",
    "version": "0.1.5"
  },
  {
    "name": "webpack-sources",
    "version": "1.1.0"
  },
  {
    "name": "whatwg-encoding",
    "version": "1.0.3"
  },
  {
    "name": "whatwg-url",
    "version": "6.4.0"
  },
  {
    "name": "when",
    "version": "3.6.4"
  },
  {
    "name": "whet.extend",
    "version": "0.9.9"
  },
  {
    "name": "which",
    "version": "1.3.0"
  },
  {
    "name": "which-module",
    "version": "1.0.0"
  },
  {
    "name": "which-module",
    "version": "2.0.0"
  },
  {
    "name": "wide-align",
    "version": "1.1.2"
  },
  {
    "name": "window",
    "version": "4.2.4"
  },
  {
    "name": "window-size",
    "version": "0.1.0"
  },
  {
    "name": "window-size",
    "version": "0.2.0"
  },
  {
    "name": "wordwrap",
    "version": "0.0.2"
  },
  {
    "name": "wordwrap",
    "version": "0.0.3"
  },
  {
    "name": "wordwrap",
    "version": "1.0.0"
  },
  {
    "name": "workbox-build",
    "version": "1.3.0"
  },
  {
    "name": "workbox-sw",
    "version": "1.3.0"
  },
  {
    "name": "worker-farm",
    "version": "1.5.2"
  },
  {
    "name": "wrap-ansi",
    "version": "2.1.0"
  },
  {
    "name": "wrappy",
    "version": "1.0.2"
  },
  {
    "name": "write",
    "version": "0.2.1"
  },
  {
    "name": "write-file-atomic",
    "version": "1.3.4"
  },
  {
    "name": "ws",
    "version": "4.0.0"
  },
  {
    "name": "xhr",
    "version": "2.4.1"
  },
  {
    "name": "xml-char-classes",
    "version": "1.0.0"
  },
  {
    "name": "xml-name-validator",
    "version": "2.0.1"
  },
  {
    "name": "xml-name-validator",
    "version": "3.0.0"
  },
  {
    "name": "xml-parse-from-string",
    "version": "1.0.1"
  },
  {
    "name": "xml2js",
    "version": "0.4.19"
  },
  {
    "name": "xmlbuilder",
    "version": "9.0.4"
  },
  {
    "name": "xtend",
    "version": "4.0.1"
  },
  {
    "name": "xxhashjs",
    "version": "0.2.2"
  },
  {
    "name": "y18n",
    "version": "3.2.1"
  },
  {
    "name": "yallist",
    "version": "2.1.2"
  },
  {
    "name": "yargs",
    "version": "10.0.3"
  },
  {
    "name": "yargs",
    "version": "3.10.0"
  },
  {
    "name": "yargs",
    "version": "4.8.1"
  },
  {
    "name": "yargs",
    "version": "8.0.2"
  },
  {
    "name": "yargs-parser",
    "version": "2.4.1"
  },
  {
    "name": "yargs-parser",
    "version": "7.0.0"
  },
  {
    "name": "yargs-parser",
    "version": "8.0.0"
  }
]