[
  {
    "name": "ansi-regex",
    "version": "2.1.1"
  },
  {
    "name": "ansi-styles",
    "version": "2.2.1"
  },
  {
    "name": "has-flag",
    "version": "1.0.0"
  },
  {
    "name": "moment",
    "version": "2.20.1"
  },
  {
    "name": "source-map",
    "version": "0.5.7"
  },
  {
    "name": "supports-color",
    "version": "3.2.3"
  },
  {
    "name": "chalk",
    "version": "1.1.3"
  },
  {
    "name": "supports-color",
    "version": "2.0.0"
  },
  {
    "name": "escape-string-regexp",
    "version": "1.0.5"
  },
  {
    "name": "has-ansi",
    "version": "2.0.0"
  },
  {
    "name": "js-base64",
    "version": "2.4.1"
  },
  {
    "name": "postcss",
    "version": "5.2.18"
  },
  {
    "name": "strip-ansi",
    "version": "3.0.1"
  }
]